浙江国际,http://hw-m-l.cztv.com/channels/lantian/channel10/1080p.m3u8
之江记录,http://hw-m-l.cztv.com/channels/lantian/channel12/1080p.m3u8
ZMC,http://hw-m-l.cztv.com/channels/lantian/channel13/1080p.m3u8
浙江NEWS,http://hw-m-l.cztv.com/channels/lantian/channel14/1080p.m3u8
ZMC综合,http://hw-m-l.cztv.com/channels/lantian/channel15/1080p.m3u8
浙江NEWS竖屏,http://hw-m-l.cztv.com/channels/lantian/channel16/1080p.m3u8
浙江卫视,http://hw-m-l.cztv.com/channels/lantian/channel17/1080p.m3u8
之江记录,http://hw-m-l.cztv.com/channels/lantian/channel18/1080p.m3u8
CCTV13,http://hw-m-l.cztv.com/channels/lantian/channel21/1080p.m3u8


274,http://ott.mobaibox.com/PLTV/3/224/3221227274/index.m3u8
275,http://ott.mobaibox.com/PLTV/3/224/3221227275/index.m3u8
276,http://ott.mobaibox.com/PLTV/3/224/3221227276/index.m3u8
277,http://ott.mobaibox.com/PLTV/3/224/3221227277/index.m3u8
278,http://ott.mobaibox.com/PLTV/3/224/3221227278/index.m3u8
279,http://ott.mobaibox.com/PLTV/3/224/3221227279/index.m3u8
280,http://ott.mobaibox.com/PLTV/3/224/3221227280/index.m3u8
281,http://ott.mobaibox.com/PLTV/3/224/3221227281/index.m3u8
282,http://ott.mobaibox.com/PLTV/3/224/3221227282/index.m3u8
283,http://ott.mobaibox.com/PLTV/3/224/3221227283/index.m3u8
284,http://ott.mobaibox.com/PLTV/3/224/3221227284/index.m3u8
285,http://ott.mobaibox.com/PLTV/3/224/3221227285/index.m3u8
286,http://ott.mobaibox.com/PLTV/3/224/3221227286/index.m3u8
287,http://ott.mobaibox.com/PLTV/3/224/3221227287/index.m3u8
288,http://ott.mobaibox.com/PLTV/3/224/3221227288/index.m3u8
289,http://ott.mobaibox.com/PLTV/3/224/3221227289/index.m3u8
290,http://ott.mobaibox.com/PLTV/3/224/3221227290/index.m3u8
291,http://ott.mobaibox.com/PLTV/3/224/3221227291/index.m3u8
292,http://ott.mobaibox.com/PLTV/3/224/3221227292/index.m3u8
293,http://ott.mobaibox.com/PLTV/3/224/3221227293/index.m3u8
294,http://ott.mobaibox.com/PLTV/3/224/3221227294/index.m3u8
295,http://ott.mobaibox.com/PLTV/3/224/3221227295/index.m3u8
296,http://ott.mobaibox.com/PLTV/3/224/3221227296/index.m3u8
297,http://ott.mobaibox.com/PLTV/3/224/3221227297/index.m3u8
298,http://ott.mobaibox.com/PLTV/3/224/3221227298/index.m3u8
299,http://ott.mobaibox.com/PLTV/3/224/3221227299/index.m3u8
300,http://ott.mobaibox.com/PLTV/3/224/3221227300/index.m3u8
301,http://ott.mobaibox.com/PLTV/3/224/3221227301/index.m3u8
302,http://ott.mobaibox.com/PLTV/3/224/3221227302/index.m3u8
303,http://ott.mobaibox.com/PLTV/3/224/3221227303/index.m3u8
304,http://ott.mobaibox.com/PLTV/3/224/3221227304/index.m3u8
305,http://ott.mobaibox.com/PLTV/3/224/3221227305/index.m3u8
306,http://ott.mobaibox.com/PLTV/3/224/3221227306/index.m3u8
307,http://ott.mobaibox.com/PLTV/3/224/3221227307/index.m3u8
308,http://ott.mobaibox.com/PLTV/3/224/3221227308/index.m3u8
309,http://ott.mobaibox.com/PLTV/3/224/3221227309/index.m3u8
310,http://ott.mobaibox.com/PLTV/3/224/3221227310/index.m3u8
311,http://ott.mobaibox.com/PLTV/3/224/3221227311/index.m3u8
312,http://ott.mobaibox.com/PLTV/3/224/3221227312/index.m3u8
313,http://ott.mobaibox.com/PLTV/3/224/3221227313/index.m3u8
314,http://ott.mobaibox.com/PLTV/3/224/3221227314/index.m3u8
315,http://ott.mobaibox.com/PLTV/3/224/3221227315/index.m3u8
316,http://ott.mobaibox.com/PLTV/3/224/3221227316/index.m3u8
317,http://ott.mobaibox.com/PLTV/3/224/3221227317/index.m3u8
318,http://ott.mobaibox.com/PLTV/3/224/3221227318/index.m3u8
319,http://ott.mobaibox.com/PLTV/3/224/3221227319/index.m3u8
320,http://ott.mobaibox.com/PLTV/3/224/3221227320/index.m3u8
321,http://ott.mobaibox.com/PLTV/3/224/3221227321/index.m3u8
322,http://ott.mobaibox.com/PLTV/3/224/3221227322/index.m3u8
323,http://ott.mobaibox.com/PLTV/3/224/3221227323/index.m3u8
324,http://ott.mobaibox.com/PLTV/3/224/3221227324/index.m3u8
325,http://ott.mobaibox.com/PLTV/3/224/3221227325/index.m3u8
326,http://ott.mobaibox.com/PLTV/3/224/3221227326/index.m3u8
327,http://ott.mobaibox.com/PLTV/3/224/3221227327/index.m3u8
328,http://ott.mobaibox.com/PLTV/3/224/3221227328/index.m3u8
329,http://ott.mobaibox.com/PLTV/3/224/3221227329/index.m3u8
330,http://ott.mobaibox.com/PLTV/3/224/3221227330/index.m3u8
331,http://ott.mobaibox.com/PLTV/3/224/3221227331/index.m3u8
332,http://ott.mobaibox.com/PLTV/3/224/3221227332/index.m3u8
333,http://ott.mobaibox.com/PLTV/3/224/3221227333/index.m3u8
334,http://ott.mobaibox.com/PLTV/3/224/3221227334/index.m3u8
335,http://ott.mobaibox.com/PLTV/3/224/3221227335/index.m3u8
336,http://ott.mobaibox.com/PLTV/3/224/3221227336/index.m3u8
337,http://ott.mobaibox.com/PLTV/3/224/3221227337/index.m3u8
338,http://ott.mobaibox.com/PLTV/3/224/3221227338/index.m3u8
339,http://ott.mobaibox.com/PLTV/3/224/3221227339/index.m3u8
340,http://ott.mobaibox.com/PLTV/3/224/3221227340/index.m3u8
341,http://ott.mobaibox.com/PLTV/3/224/3221227341/index.m3u8
342,http://ott.mobaibox.com/PLTV/3/224/3221227342/index.m3u8
343,http://ott.mobaibox.com/PLTV/3/224/3221227343/index.m3u8
344,http://ott.mobaibox.com/PLTV/3/224/3221227344/index.m3u8
345,http://ott.mobaibox.com/PLTV/3/224/3221227345/index.m3u8
346,http://ott.mobaibox.com/PLTV/3/224/3221227346/index.m3u8
347,http://ott.mobaibox.com/PLTV/3/224/3221227347/index.m3u8
348,http://ott.mobaibox.com/PLTV/3/224/3221227348/index.m3u8
349,http://ott.mobaibox.com/PLTV/3/224/3221227349/index.m3u8
350,http://ott.mobaibox.com/PLTV/3/224/3221227350/index.m3u8
351,http://ott.mobaibox.com/PLTV/3/224/3221227351/index.m3u8
352,http://ott.mobaibox.com/PLTV/3/224/3221227352/index.m3u8
353,http://ott.mobaibox.com/PLTV/3/224/3221227353/index.m3u8
354,http://ott.mobaibox.com/PLTV/3/224/3221227354/index.m3u8
355,http://ott.mobaibox.com/PLTV/3/224/3221227355/index.m3u8
356,http://ott.mobaibox.com/PLTV/3/224/3221227356/index.m3u8
357,http://ott.mobaibox.com/PLTV/3/224/3221227357/index.m3u8
358,http://ott.mobaibox.com/PLTV/3/224/3221227358/index.m3u8
359,http://ott.mobaibox.com/PLTV/3/224/3221227359/index.m3u8
360,http://ott.mobaibox.com/PLTV/3/224/3221227360/index.m3u8
361,http://ott.mobaibox.com/PLTV/3/224/3221227361/index.m3u8
362,http://ott.mobaibox.com/PLTV/3/224/3221227362/index.m3u8
363,http://ott.mobaibox.com/PLTV/3/224/3221227363/index.m3u8
364,http://ott.mobaibox.com/PLTV/3/224/3221227364/index.m3u8
365,http://ott.mobaibox.com/PLTV/3/224/3221227365/index.m3u8
366,http://ott.mobaibox.com/PLTV/3/224/3221227366/index.m3u8
367,http://ott.mobaibox.com/PLTV/3/224/3221227367/index.m3u8
368,http://ott.mobaibox.com/PLTV/3/224/3221227368/index.m3u8
369,http://ott.mobaibox.com/PLTV/3/224/3221227369/index.m3u8
370,http://ott.mobaibox.com/PLTV/3/224/3221227370/index.m3u8
371,http://ott.mobaibox.com/PLTV/3/224/3221227371/index.m3u8
372,http://ott.mobaibox.com/PLTV/3/224/3221227372/index.m3u8
373,http://ott.mobaibox.com/PLTV/3/224/3221227373/index.m3u8
374,http://ott.mobaibox.com/PLTV/3/224/3221227374/index.m3u8
375,http://ott.mobaibox.com/PLTV/3/224/3221227375/index.m3u8
376,http://ott.mobaibox.com/PLTV/3/224/3221227376/index.m3u8
377,http://ott.mobaibox.com/PLTV/3/224/3221227377/index.m3u8
378,http://ott.mobaibox.com/PLTV/3/224/3221227378/index.m3u8
379,http://ott.mobaibox.com/PLTV/3/224/3221227379/index.m3u8
380,http://ott.mobaibox.com/PLTV/3/224/3221227380/index.m3u8
381,http://ott.mobaibox.com/PLTV/3/224/3221227381/index.m3u8
382,http://ott.mobaibox.com/PLTV/3/224/3221227382/index.m3u8
383,http://ott.mobaibox.com/PLTV/3/224/3221227383/index.m3u8
384,http://ott.mobaibox.com/PLTV/3/224/3221227384/index.m3u8
385,http://ott.mobaibox.com/PLTV/3/224/3221227385/index.m3u8
386,http://ott.mobaibox.com/PLTV/3/224/3221227386/index.m3u8
387,http://ott.mobaibox.com/PLTV/3/224/3221227387/index.m3u8
388,http://ott.mobaibox.com/PLTV/3/224/3221227388/index.m3u8
389,http://ott.mobaibox.com/PLTV/3/224/3221227389/index.m3u8
390,http://ott.mobaibox.com/PLTV/3/224/3221227390/index.m3u8
391,http://ott.mobaibox.com/PLTV/3/224/3221227391/index.m3u8
392,http://ott.mobaibox.com/PLTV/3/224/3221227392/index.m3u8
393,http://ott.mobaibox.com/PLTV/3/224/3221227393/index.m3u8
394,http://ott.mobaibox.com/PLTV/3/224/3221227394/index.m3u8
395,http://ott.mobaibox.com/PLTV/3/224/3221227395/index.m3u8
396,http://ott.mobaibox.com/PLTV/3/224/3221227396/index.m3u8
397,http://ott.mobaibox.com/PLTV/3/224/3221227397/index.m3u8
398,http://ott.mobaibox.com/PLTV/3/224/3221227398/index.m3u8
399,http://ott.mobaibox.com/PLTV/3/224/3221227399/index.m3u8
400,http://ott.mobaibox.com/PLTV/3/224/3221227400/index.m3u8
401,http://ott.mobaibox.com/PLTV/3/224/3221227401/index.m3u8
402,http://ott.mobaibox.com/PLTV/3/224/3221227402/index.m3u8
403,http://ott.mobaibox.com/PLTV/3/224/3221227403/index.m3u8
404,http://ott.mobaibox.com/PLTV/3/224/3221227404/index.m3u8
405,http://ott.mobaibox.com/PLTV/3/224/3221227405/index.m3u8
406,http://ott.mobaibox.com/PLTV/3/224/3221227406/index.m3u8
407,http://ott.mobaibox.com/PLTV/3/224/3221227407/index.m3u8
408,http://ott.mobaibox.com/PLTV/3/224/3221227408/index.m3u8
409,http://ott.mobaibox.com/PLTV/3/224/3221227409/index.m3u8
410,http://ott.mobaibox.com/PLTV/3/224/3221227410/index.m3u8
411,http://ott.mobaibox.com/PLTV/3/224/3221227411/index.m3u8
412,http://ott.mobaibox.com/PLTV/3/224/3221227412/index.m3u8
413,http://ott.mobaibox.com/PLTV/3/224/3221227413/index.m3u8
414,http://ott.mobaibox.com/PLTV/3/224/3221227414/index.m3u8
415,http://ott.mobaibox.com/PLTV/3/224/3221227415/index.m3u8
416,http://ott.mobaibox.com/PLTV/3/224/3221227416/index.m3u8
417,http://ott.mobaibox.com/PLTV/3/224/3221227417/index.m3u8
418,http://ott.mobaibox.com/PLTV/3/224/3221227418/index.m3u8
419,http://ott.mobaibox.com/PLTV/3/224/3221227419/index.m3u8
420,http://ott.mobaibox.com/PLTV/3/224/3221227420/index.m3u8
421,http://ott.mobaibox.com/PLTV/3/224/3221227421/index.m3u8
422,http://ott.mobaibox.com/PLTV/3/224/3221227422/index.m3u8
423,http://ott.mobaibox.com/PLTV/3/224/3221227423/index.m3u8
424,http://ott.mobaibox.com/PLTV/3/224/3221227424/index.m3u8
425,http://ott.mobaibox.com/PLTV/3/224/3221227425/index.m3u8
426,http://ott.mobaibox.com/PLTV/3/224/3221227426/index.m3u8
427,http://ott.mobaibox.com/PLTV/3/224/3221227427/index.m3u8
428,http://ott.mobaibox.com/PLTV/3/224/3221227428/index.m3u8
429,http://ott.mobaibox.com/PLTV/3/224/3221227429/index.m3u8
430,http://ott.mobaibox.com/PLTV/3/224/3221227430/index.m3u8
431,http://ott.mobaibox.com/PLTV/3/224/3221227431/index.m3u8
432,http://ott.mobaibox.com/PLTV/3/224/3221227432/index.m3u8
433,http://ott.mobaibox.com/PLTV/3/224/3221227433/index.m3u8
434,http://ott.mobaibox.com/PLTV/3/224/3221227434/index.m3u8
435,http://ott.mobaibox.com/PLTV/3/224/3221227435/index.m3u8
436,http://ott.mobaibox.com/PLTV/3/224/3221227436/index.m3u8
437,http://ott.mobaibox.com/PLTV/3/224/3221227437/index.m3u8
438,http://ott.mobaibox.com/PLTV/3/224/3221227438/index.m3u8
439,http://ott.mobaibox.com/PLTV/3/224/3221227439/index.m3u8
440,http://ott.mobaibox.com/PLTV/3/224/3221227440/index.m3u8
441,http://ott.mobaibox.com/PLTV/3/224/3221227441/index.m3u8
442,http://ott.mobaibox.com/PLTV/3/224/3221227442/index.m3u8
443,http://ott.mobaibox.com/PLTV/3/224/3221227443/index.m3u8
444,http://ott.mobaibox.com/PLTV/3/224/3221227444/index.m3u8
445,http://ott.mobaibox.com/PLTV/3/224/3221227445/index.m3u8
446,http://ott.mobaibox.com/PLTV/3/224/3221227446/index.m3u8
447,http://ott.mobaibox.com/PLTV/3/224/3221227447/index.m3u8
448,http://ott.mobaibox.com/PLTV/3/224/3221227448/index.m3u8
449,http://ott.mobaibox.com/PLTV/3/224/3221227449/index.m3u8
450,http://ott.mobaibox.com/PLTV/3/224/3221227450/index.m3u8
451,http://ott.mobaibox.com/PLTV/3/224/3221227451/index.m3u8
452,http://ott.mobaibox.com/PLTV/3/224/3221227452/index.m3u8
453,http://ott.mobaibox.com/PLTV/3/224/3221227453/index.m3u8
454,http://ott.mobaibox.com/PLTV/3/224/3221227454/index.m3u8
455,http://ott.mobaibox.com/PLTV/3/224/3221227455/index.m3u8
456,http://ott.mobaibox.com/PLTV/3/224/3221227456/index.m3u8
457,http://ott.mobaibox.com/PLTV/3/224/3221227457/index.m3u8
458,http://ott.mobaibox.com/PLTV/3/224/3221227458/index.m3u8
459,http://ott.mobaibox.com/PLTV/3/224/3221227459/index.m3u8
460,http://ott.mobaibox.com/PLTV/3/224/3221227460/index.m3u8
461,http://ott.mobaibox.com/PLTV/3/224/3221227461/index.m3u8
462,http://ott.mobaibox.com/PLTV/3/224/3221227462/index.m3u8
463,http://ott.mobaibox.com/PLTV/3/224/3221227463/index.m3u8
464,http://ott.mobaibox.com/PLTV/3/224/3221227464/index.m3u8
465,http://ott.mobaibox.com/PLTV/3/224/3221227465/index.m3u8
466,http://ott.mobaibox.com/PLTV/3/224/3221227466/index.m3u8
467,http://ott.mobaibox.com/PLTV/3/224/3221227467/index.m3u8
468,http://ott.mobaibox.com/PLTV/3/224/3221227468/index.m3u8
469,http://ott.mobaibox.com/PLTV/3/224/3221227469/index.m3u8
470,http://ott.mobaibox.com/PLTV/3/224/3221227470/index.m3u8
471,http://ott.mobaibox.com/PLTV/3/224/3221227471/index.m3u8
472,http://ott.mobaibox.com/PLTV/3/224/3221227472/index.m3u8
473,http://ott.mobaibox.com/PLTV/3/224/3221227473/index.m3u8
474,http://ott.mobaibox.com/PLTV/3/224/3221227474/index.m3u8
475,http://ott.mobaibox.com/PLTV/3/224/3221227475/index.m3u8
476,http://ott.mobaibox.com/PLTV/3/224/3221227476/index.m3u8
477,http://ott.mobaibox.com/PLTV/3/224/3221227477/index.m3u8
478,http://ott.mobaibox.com/PLTV/3/224/3221227478/index.m3u8
479,http://ott.mobaibox.com/PLTV/3/224/3221227479/index.m3u8
480,http://ott.mobaibox.com/PLTV/3/224/3221227480/index.m3u8
481,http://ott.mobaibox.com/PLTV/3/224/3221227481/index.m3u8
482,http://ott.mobaibox.com/PLTV/3/224/3221227482/index.m3u8
483,http://ott.mobaibox.com/PLTV/3/224/3221227483/index.m3u8
484,http://ott.mobaibox.com/PLTV/3/224/3221227484/index.m3u8
485,http://ott.mobaibox.com/PLTV/3/224/3221227485/index.m3u8
486,http://ott.mobaibox.com/PLTV/3/224/3221227486/index.m3u8
487,http://ott.mobaibox.com/PLTV/3/224/3221227487/index.m3u8
488,http://ott.mobaibox.com/PLTV/3/224/3221227488/index.m3u8
489,http://ott.mobaibox.com/PLTV/3/224/3221227489/index.m3u8
490,http://ott.mobaibox.com/PLTV/3/224/3221227490/index.m3u8
491,http://ott.mobaibox.com/PLTV/3/224/3221227491/index.m3u8
492,http://ott.mobaibox.com/PLTV/3/224/3221227492/index.m3u8
493,http://ott.mobaibox.com/PLTV/3/224/3221227493/index.m3u8
494,http://ott.mobaibox.com/PLTV/3/224/3221227494/index.m3u8
495,http://ott.mobaibox.com/PLTV/3/224/3221227495/index.m3u8
496,http://ott.mobaibox.com/PLTV/3/224/3221227496/index.m3u8
497,http://ott.mobaibox.com/PLTV/3/224/3221227497/index.m3u8
498,http://ott.mobaibox.com/PLTV/3/224/3221227498/index.m3u8
499,http://ott.mobaibox.com/PLTV/3/224/3221227499/index.m3u8
500,http://ott.mobaibox.com/PLTV/3/224/3221227500/index.m3u8
501,http://ott.mobaibox.com/PLTV/3/224/3221227501/index.m3u8
502,http://ott.mobaibox.com/PLTV/3/224/3221227502/index.m3u8
503,http://ott.mobaibox.com/PLTV/3/224/3221227503/index.m3u8
504,http://ott.mobaibox.com/PLTV/3/224/3221227504/index.m3u8
505,http://ott.mobaibox.com/PLTV/3/224/3221227505/index.m3u8
506,http://ott.mobaibox.com/PLTV/3/224/3221227506/index.m3u8
507,http://ott.mobaibox.com/PLTV/3/224/3221227507/index.m3u8
508,http://ott.mobaibox.com/PLTV/3/224/3221227508/index.m3u8
509,http://ott.mobaibox.com/PLTV/3/224/3221227509/index.m3u8
510,http://ott.mobaibox.com/PLTV/3/224/3221227510/index.m3u8
511,http://ott.mobaibox.com/PLTV/3/224/3221227511/index.m3u8
512,http://ott.mobaibox.com/PLTV/3/224/3221227512/index.m3u8
513,http://ott.mobaibox.com/PLTV/3/224/3221227513/index.m3u8
514,http://ott.mobaibox.com/PLTV/3/224/3221227514/index.m3u8
515,http://ott.mobaibox.com/PLTV/3/224/3221227515/index.m3u8
516,http://ott.mobaibox.com/PLTV/3/224/3221227516/index.m3u8
517,http://ott.mobaibox.com/PLTV/3/224/3221227517/index.m3u8
518,http://ott.mobaibox.com/PLTV/3/224/3221227518/index.m3u8
519,http://ott.mobaibox.com/PLTV/3/224/3221227519/index.m3u8
520,http://ott.mobaibox.com/PLTV/3/224/3221227520/index.m3u8
521,http://ott.mobaibox.com/PLTV/3/224/3221227521/index.m3u8
522,http://ott.mobaibox.com/PLTV/3/224/3221227522/index.m3u8
523,http://ott.mobaibox.com/PLTV/3/224/3221227523/index.m3u8
524,http://ott.mobaibox.com/PLTV/3/224/3221227524/index.m3u8
525,http://ott.mobaibox.com/PLTV/3/224/3221227525/index.m3u8
526,http://ott.mobaibox.com/PLTV/3/224/3221227526/index.m3u8
527,http://ott.mobaibox.com/PLTV/3/224/3221227527/index.m3u8
528,http://ott.mobaibox.com/PLTV/3/224/3221227528/index.m3u8
529,http://ott.mobaibox.com/PLTV/3/224/3221227529/index.m3u8
530,http://ott.mobaibox.com/PLTV/3/224/3221227530/index.m3u8
531,http://ott.mobaibox.com/PLTV/3/224/3221227531/index.m3u8
532,http://ott.mobaibox.com/PLTV/3/224/3221227532/index.m3u8
533,http://ott.mobaibox.com/PLTV/3/224/3221227533/index.m3u8
534,http://ott.mobaibox.com/PLTV/3/224/3221227534/index.m3u8
535,http://ott.mobaibox.com/PLTV/3/224/3221227535/index.m3u8
536,http://ott.mobaibox.com/PLTV/3/224/3221227536/index.m3u8
537,http://ott.mobaibox.com/PLTV/3/224/3221227537/index.m3u8
538,http://ott.mobaibox.com/PLTV/3/224/3221227538/index.m3u8
539,http://ott.mobaibox.com/PLTV/3/224/3221227539/index.m3u8
540,http://ott.mobaibox.com/PLTV/3/224/3221227540/index.m3u8
541,http://ott.mobaibox.com/PLTV/3/224/3221227541/index.m3u8
542,http://ott.mobaibox.com/PLTV/3/224/3221227542/index.m3u8
543,http://ott.mobaibox.com/PLTV/3/224/3221227543/index.m3u8
544,http://ott.mobaibox.com/PLTV/3/224/3221227544/index.m3u8
545,http://ott.mobaibox.com/PLTV/3/224/3221227545/index.m3u8
546,http://ott.mobaibox.com/PLTV/3/224/3221227546/index.m3u8
547,http://ott.mobaibox.com/PLTV/3/224/3221227547/index.m3u8
548,http://ott.mobaibox.com/PLTV/3/224/3221227548/index.m3u8
549,http://ott.mobaibox.com/PLTV/3/224/3221227549/index.m3u8
550,http://ott.mobaibox.com/PLTV/3/224/3221227550/index.m3u8
551,http://ott.mobaibox.com/PLTV/3/224/3221227551/index.m3u8
552,http://ott.mobaibox.com/PLTV/3/224/3221227552/index.m3u8
553,http://ott.mobaibox.com/PLTV/3/224/3221227553/index.m3u8
554,http://ott.mobaibox.com/PLTV/3/224/3221227554/index.m3u8
555,http://ott.mobaibox.com/PLTV/3/224/3221227555/index.m3u8
556,http://ott.mobaibox.com/PLTV/3/224/3221227556/index.m3u8
557,http://ott.mobaibox.com/PLTV/3/224/3221227557/index.m3u8
558,http://ott.mobaibox.com/PLTV/3/224/3221227558/index.m3u8
559,http://ott.mobaibox.com/PLTV/3/224/3221227559/index.m3u8
560,http://ott.mobaibox.com/PLTV/3/224/3221227560/index.m3u8
561,http://ott.mobaibox.com/PLTV/3/224/3221227561/index.m3u8
562,http://ott.mobaibox.com/PLTV/3/224/3221227562/index.m3u8
563,http://ott.mobaibox.com/PLTV/3/224/3221227563/index.m3u8
564,http://ott.mobaibox.com/PLTV/3/224/3221227564/index.m3u8
565,http://ott.mobaibox.com/PLTV/3/224/3221227565/index.m3u8
566,http://ott.mobaibox.com/PLTV/3/224/3221227566/index.m3u8
567,http://ott.mobaibox.com/PLTV/3/224/3221227567/index.m3u8
568,http://ott.mobaibox.com/PLTV/3/224/3221227568/index.m3u8
569,http://ott.mobaibox.com/PLTV/3/224/3221227569/index.m3u8
570,http://ott.mobaibox.com/PLTV/3/224/3221227570/index.m3u8
571,http://ott.mobaibox.com/PLTV/3/224/3221227571/index.m3u8
572,http://ott.mobaibox.com/PLTV/3/224/3221227572/index.m3u8
573,http://ott.mobaibox.com/PLTV/3/224/3221227573/index.m3u8
574,http://ott.mobaibox.com/PLTV/3/224/3221227574/index.m3u8
575,http://ott.mobaibox.com/PLTV/3/224/3221227575/index.m3u8
576,http://ott.mobaibox.com/PLTV/3/224/3221227576/index.m3u8
577,http://ott.mobaibox.com/PLTV/3/224/3221227577/index.m3u8
578,http://ott.mobaibox.com/PLTV/3/224/3221227578/index.m3u8
579,http://ott.mobaibox.com/PLTV/3/224/3221227579/index.m3u8
580,http://ott.mobaibox.com/PLTV/3/224/3221227580/index.m3u8
581,http://ott.mobaibox.com/PLTV/3/224/3221227581/index.m3u8
582,http://ott.mobaibox.com/PLTV/3/224/3221227582/index.m3u8
583,http://ott.mobaibox.com/PLTV/3/224/3221227583/index.m3u8
584,http://ott.mobaibox.com/PLTV/3/224/3221227584/index.m3u8
585,http://ott.mobaibox.com/PLTV/3/224/3221227585/index.m3u8
586,http://ott.mobaibox.com/PLTV/3/224/3221227586/index.m3u8
587,http://ott.mobaibox.com/PLTV/3/224/3221227587/index.m3u8
588,http://ott.mobaibox.com/PLTV/3/224/3221227588/index.m3u8
589,http://ott.mobaibox.com/PLTV/3/224/3221227589/index.m3u8
590,http://ott.mobaibox.com/PLTV/3/224/3221227590/index.m3u8
591,http://ott.mobaibox.com/PLTV/3/224/3221227591/index.m3u8
592,http://ott.mobaibox.com/PLTV/3/224/3221227592/index.m3u8
593,http://ott.mobaibox.com/PLTV/3/224/3221227593/index.m3u8
594,http://ott.mobaibox.com/PLTV/3/224/3221227594/index.m3u8
595,http://ott.mobaibox.com/PLTV/3/224/3221227595/index.m3u8
596,http://ott.mobaibox.com/PLTV/3/224/3221227596/index.m3u8
597,http://ott.mobaibox.com/PLTV/3/224/3221227597/index.m3u8
598,http://ott.mobaibox.com/PLTV/3/224/3221227598/index.m3u8
599,http://ott.mobaibox.com/PLTV/3/224/3221227599/index.m3u8
600,http://ott.mobaibox.com/PLTV/3/224/3221227600/index.m3u8
601,http://ott.mobaibox.com/PLTV/3/224/3221227601/index.m3u8
602,http://ott.mobaibox.com/PLTV/3/224/3221227602/index.m3u8
603,http://ott.mobaibox.com/PLTV/3/224/3221227603/index.m3u8
604,http://ott.mobaibox.com/PLTV/3/224/3221227604/index.m3u8
605,http://ott.mobaibox.com/PLTV/3/224/3221227605/index.m3u8
606,http://ott.mobaibox.com/PLTV/3/224/3221227606/index.m3u8
607,http://ott.mobaibox.com/PLTV/3/224/3221227607/index.m3u8
608,http://ott.mobaibox.com/PLTV/3/224/3221227608/index.m3u8
609,http://ott.mobaibox.com/PLTV/3/224/3221227609/index.m3u8
610,http://ott.mobaibox.com/PLTV/3/224/3221227610/index.m3u8
611,http://ott.mobaibox.com/PLTV/3/224/3221227611/index.m3u8
612,http://ott.mobaibox.com/PLTV/3/224/3221227612/index.m3u8
613,http://ott.mobaibox.com/PLTV/3/224/3221227613/index.m3u8
614,http://ott.mobaibox.com/PLTV/3/224/3221227614/index.m3u8
615,http://ott.mobaibox.com/PLTV/3/224/3221227615/index.m3u8
616,http://ott.mobaibox.com/PLTV/3/224/3221227616/index.m3u8
617,http://ott.mobaibox.com/PLTV/3/224/3221227617/index.m3u8
618,http://ott.mobaibox.com/PLTV/3/224/3221227618/index.m3u8
619,http://ott.mobaibox.com/PLTV/3/224/3221227619/index.m3u8
620,http://ott.mobaibox.com/PLTV/3/224/3221227620/index.m3u8
621,http://ott.mobaibox.com/PLTV/3/224/3221227621/index.m3u8
622,http://ott.mobaibox.com/PLTV/3/224/3221227622/index.m3u8
623,http://ott.mobaibox.com/PLTV/3/224/3221227623/index.m3u8
624,http://ott.mobaibox.com/PLTV/3/224/3221227624/index.m3u8
625,http://ott.mobaibox.com/PLTV/3/224/3221227625/index.m3u8
626,http://ott.mobaibox.com/PLTV/3/224/3221227626/index.m3u8
627,http://ott.mobaibox.com/PLTV/3/224/3221227627/index.m3u8
628,http://ott.mobaibox.com/PLTV/3/224/3221227628/index.m3u8
629,http://ott.mobaibox.com/PLTV/3/224/3221227629/index.m3u8
630,http://ott.mobaibox.com/PLTV/3/224/3221227630/index.m3u8
631,http://ott.mobaibox.com/PLTV/3/224/3221227631/index.m3u8
632,http://ott.mobaibox.com/PLTV/3/224/3221227632/index.m3u8
633,http://ott.mobaibox.com/PLTV/3/224/3221227633/index.m3u8
634,http://ott.mobaibox.com/PLTV/3/224/3221227634/index.m3u8
635,http://ott.mobaibox.com/PLTV/3/224/3221227635/index.m3u8
636,http://ott.mobaibox.com/PLTV/3/224/3221227636/index.m3u8
637,http://ott.mobaibox.com/PLTV/3/224/3221227637/index.m3u8
638,http://ott.mobaibox.com/PLTV/3/224/3221227638/index.m3u8
639,http://ott.mobaibox.com/PLTV/3/224/3221227639/index.m3u8
640,http://ott.mobaibox.com/PLTV/3/224/3221227640/index.m3u8
641,http://ott.mobaibox.com/PLTV/3/224/3221227641/index.m3u8
642,http://ott.mobaibox.com/PLTV/3/224/3221227642/index.m3u8
643,http://ott.mobaibox.com/PLTV/3/224/3221227643/index.m3u8
644,http://ott.mobaibox.com/PLTV/3/224/3221227644/index.m3u8
645,http://ott.mobaibox.com/PLTV/3/224/3221227645/index.m3u8
646,http://ott.mobaibox.com/PLTV/3/224/3221227646/index.m3u8
647,http://ott.mobaibox.com/PLTV/3/224/3221227647/index.m3u8
648,http://ott.mobaibox.com/PLTV/3/224/3221227648/index.m3u8
649,http://ott.mobaibox.com/PLTV/3/224/3221227649/index.m3u8
650,http://ott.mobaibox.com/PLTV/3/224/3221227650/index.m3u8
651,http://ott.mobaibox.com/PLTV/3/224/3221227651/index.m3u8
652,http://ott.mobaibox.com/PLTV/3/224/3221227652/index.m3u8
653,http://ott.mobaibox.com/PLTV/3/224/3221227653/index.m3u8
654,http://ott.mobaibox.com/PLTV/3/224/3221227654/index.m3u8
655,http://ott.mobaibox.com/PLTV/3/224/3221227655/index.m3u8
656,http://ott.mobaibox.com/PLTV/3/224/3221227656/index.m3u8
657,http://ott.mobaibox.com/PLTV/3/224/3221227657/index.m3u8
658,http://ott.mobaibox.com/PLTV/3/224/3221227658/index.m3u8
659,http://ott.mobaibox.com/PLTV/3/224/3221227659/index.m3u8
660,http://ott.mobaibox.com/PLTV/3/224/3221227660/index.m3u8
661,http://ott.mobaibox.com/PLTV/3/224/3221227661/index.m3u8
662,http://ott.mobaibox.com/PLTV/3/224/3221227662/index.m3u8
663,http://ott.mobaibox.com/PLTV/3/224/3221227663/index.m3u8
664,http://ott.mobaibox.com/PLTV/3/224/3221227664/index.m3u8
665,http://ott.mobaibox.com/PLTV/3/224/3221227665/index.m3u8
666,http://ott.mobaibox.com/PLTV/3/224/3221227666/index.m3u8
667,http://ott.mobaibox.com/PLTV/3/224/3221227667/index.m3u8
668,http://ott.mobaibox.com/PLTV/3/224/3221227668/index.m3u8
669,http://ott.mobaibox.com/PLTV/3/224/3221227669/index.m3u8
670,http://ott.mobaibox.com/PLTV/3/224/3221227670/index.m3u8
671,http://ott.mobaibox.com/PLTV/3/224/3221227671/index.m3u8
672,http://ott.mobaibox.com/PLTV/3/224/3221227672/index.m3u8
673,http://ott.mobaibox.com/PLTV/3/224/3221227673/index.m3u8
674,http://ott.mobaibox.com/PLTV/3/224/3221227674/index.m3u8
675,http://ott.mobaibox.com/PLTV/3/224/3221227675/index.m3u8
676,http://ott.mobaibox.com/PLTV/3/224/3221227676/index.m3u8
677,http://ott.mobaibox.com/PLTV/3/224/3221227677/index.m3u8
678,http://ott.mobaibox.com/PLTV/3/224/3221227678/index.m3u8
679,http://ott.mobaibox.com/PLTV/3/224/3221227679/index.m3u8
680,http://ott.mobaibox.com/PLTV/3/224/3221227680/index.m3u8
681,http://ott.mobaibox.com/PLTV/3/224/3221227681/index.m3u8
682,http://ott.mobaibox.com/PLTV/3/224/3221227682/index.m3u8
683,http://ott.mobaibox.com/PLTV/3/224/3221227683/index.m3u8
684,http://ott.mobaibox.com/PLTV/3/224/3221227684/index.m3u8
685,http://ott.mobaibox.com/PLTV/3/224/3221227685/index.m3u8
686,http://ott.mobaibox.com/PLTV/3/224/3221227686/index.m3u8
687,http://ott.mobaibox.com/PLTV/3/224/3221227687/index.m3u8
688,http://ott.mobaibox.com/PLTV/3/224/3221227688/index.m3u8
689,http://ott.mobaibox.com/PLTV/3/224/3221227689/index.m3u8
690,http://ott.mobaibox.com/PLTV/3/224/3221227690/index.m3u8
691,http://ott.mobaibox.com/PLTV/3/224/3221227691/index.m3u8
692,http://ott.mobaibox.com/PLTV/3/224/3221227692/index.m3u8
693,http://ott.mobaibox.com/PLTV/3/224/3221227693/index.m3u8
694,http://ott.mobaibox.com/PLTV/3/224/3221227694/index.m3u8
695,http://ott.mobaibox.com/PLTV/3/224/3221227695/index.m3u8
696,http://ott.mobaibox.com/PLTV/3/224/3221227696/index.m3u8
697,http://ott.mobaibox.com/PLTV/3/224/3221227697/index.m3u8
698,http://ott.mobaibox.com/PLTV/3/224/3221227698/index.m3u8
699,http://ott.mobaibox.com/PLTV/3/224/3221227699/index.m3u8
700,http://ott.mobaibox.com/PLTV/3/224/3221227700/index.m3u8
701,http://ott.mobaibox.com/PLTV/3/224/3221227701/index.m3u8
702,http://ott.mobaibox.com/PLTV/3/224/3221227702/index.m3u8
703,http://ott.mobaibox.com/PLTV/3/224/3221227703/index.m3u8
704,http://ott.mobaibox.com/PLTV/3/224/3221227704/index.m3u8
705,http://ott.mobaibox.com/PLTV/3/224/3221227705/index.m3u8
706,http://ott.mobaibox.com/PLTV/3/224/3221227706/index.m3u8
707,http://ott.mobaibox.com/PLTV/3/224/3221227707/index.m3u8
708,http://ott.mobaibox.com/PLTV/3/224/3221227708/index.m3u8
709,http://ott.mobaibox.com/PLTV/3/224/3221227709/index.m3u8
710,http://ott.mobaibox.com/PLTV/3/224/3221227710/index.m3u8
711,http://ott.mobaibox.com/PLTV/3/224/3221227711/index.m3u8
712,http://ott.mobaibox.com/PLTV/3/224/3221227712/index.m3u8
713,http://ott.mobaibox.com/PLTV/3/224/3221227713/index.m3u8
714,http://ott.mobaibox.com/PLTV/3/224/3221227714/index.m3u8
715,http://ott.mobaibox.com/PLTV/3/224/3221227715/index.m3u8
716,http://ott.mobaibox.com/PLTV/3/224/3221227716/index.m3u8
717,http://ott.mobaibox.com/PLTV/3/224/3221227717/index.m3u8
718,http://ott.mobaibox.com/PLTV/3/224/3221227718/index.m3u8
719,http://ott.mobaibox.com/PLTV/3/224/3221227719/index.m3u8
720,http://ott.mobaibox.com/PLTV/3/224/3221227720/index.m3u8
721,http://ott.mobaibox.com/PLTV/3/224/3221227721/index.m3u8
722,http://ott.mobaibox.com/PLTV/3/224/3221227722/index.m3u8
723,http://ott.mobaibox.com/PLTV/3/224/3221227723/index.m3u8
724,http://ott.mobaibox.com/PLTV/3/224/3221227724/index.m3u8
725,http://ott.mobaibox.com/PLTV/3/224/3221227725/index.m3u8
726,http://ott.mobaibox.com/PLTV/3/224/3221227726/index.m3u8
727,http://ott.mobaibox.com/PLTV/3/224/3221227727/index.m3u8
728,http://ott.mobaibox.com/PLTV/3/224/3221227728/index.m3u8
729,http://ott.mobaibox.com/PLTV/3/224/3221227729/index.m3u8
730,http://ott.mobaibox.com/PLTV/3/224/3221227730/index.m3u8
731,http://ott.mobaibox.com/PLTV/3/224/3221227731/index.m3u8
732,http://ott.mobaibox.com/PLTV/3/224/3221227732/index.m3u8
733,http://ott.mobaibox.com/PLTV/3/224/3221227733/index.m3u8
734,http://ott.mobaibox.com/PLTV/3/224/3221227734/index.m3u8
735,http://ott.mobaibox.com/PLTV/3/224/3221227735/index.m3u8
736,http://ott.mobaibox.com/PLTV/3/224/3221227736/index.m3u8
737,http://ott.mobaibox.com/PLTV/3/224/3221227737/index.m3u8
738,http://ott.mobaibox.com/PLTV/3/224/3221227738/index.m3u8
739,http://ott.mobaibox.com/PLTV/3/224/3221227739/index.m3u8
740,http://ott.mobaibox.com/PLTV/3/224/3221227740/index.m3u8
741,http://ott.mobaibox.com/PLTV/3/224/3221227741/index.m3u8
742,http://ott.mobaibox.com/PLTV/3/224/3221227742/index.m3u8
743,http://ott.mobaibox.com/PLTV/3/224/3221227743/index.m3u8
744,http://ott.mobaibox.com/PLTV/3/224/3221227744/index.m3u8
745,http://ott.mobaibox.com/PLTV/3/224/3221227745/index.m3u8
746,http://ott.mobaibox.com/PLTV/3/224/3221227746/index.m3u8
747,http://ott.mobaibox.com/PLTV/3/224/3221227747/index.m3u8
748,http://ott.mobaibox.com/PLTV/3/224/3221227748/index.m3u8
749,http://ott.mobaibox.com/PLTV/3/224/3221227749/index.m3u8
750,http://ott.mobaibox.com/PLTV/3/224/3221227750/index.m3u8
751,http://ott.mobaibox.com/PLTV/3/224/3221227751/index.m3u8
752,http://ott.mobaibox.com/PLTV/3/224/3221227752/index.m3u8
753,http://ott.mobaibox.com/PLTV/3/224/3221227753/index.m3u8
754,http://ott.mobaibox.com/PLTV/3/224/3221227754/index.m3u8
755,http://ott.mobaibox.com/PLTV/3/224/3221227755/index.m3u8
756,http://ott.mobaibox.com/PLTV/3/224/3221227756/index.m3u8
757,http://ott.mobaibox.com/PLTV/3/224/3221227757/index.m3u8
758,http://ott.mobaibox.com/PLTV/3/224/3221227758/index.m3u8
759,http://ott.mobaibox.com/PLTV/3/224/3221227759/index.m3u8
760,http://ott.mobaibox.com/PLTV/3/224/3221227760/index.m3u8
761,http://ott.mobaibox.com/PLTV/3/224/3221227761/index.m3u8
762,http://ott.mobaibox.com/PLTV/3/224/3221227762/index.m3u8
763,http://ott.mobaibox.com/PLTV/3/224/3221227763/index.m3u8
764,http://ott.mobaibox.com/PLTV/3/224/3221227764/index.m3u8
765,http://ott.mobaibox.com/PLTV/3/224/3221227765/index.m3u8
766,http://ott.mobaibox.com/PLTV/3/224/3221227766/index.m3u8
767,http://ott.mobaibox.com/PLTV/3/224/3221227767/index.m3u8
768,http://ott.mobaibox.com/PLTV/3/224/3221227768/index.m3u8
769,http://ott.mobaibox.com/PLTV/3/224/3221227769/index.m3u8
770,http://ott.mobaibox.com/PLTV/3/224/3221227770/index.m3u8
771,http://ott.mobaibox.com/PLTV/3/224/3221227771/index.m3u8
772,http://ott.mobaibox.com/PLTV/3/224/3221227772/index.m3u8
773,http://ott.mobaibox.com/PLTV/3/224/3221227773/index.m3u8
774,http://ott.mobaibox.com/PLTV/3/224/3221227774/index.m3u8
775,http://ott.mobaibox.com/PLTV/3/224/3221227775/index.m3u8
776,http://ott.mobaibox.com/PLTV/3/224/3221227776/index.m3u8
777,http://ott.mobaibox.com/PLTV/3/224/3221227777/index.m3u8
778,http://ott.mobaibox.com/PLTV/3/224/3221227778/index.m3u8
779,http://ott.mobaibox.com/PLTV/3/224/3221227779/index.m3u8
780,http://ott.mobaibox.com/PLTV/3/224/3221227780/index.m3u8
781,http://ott.mobaibox.com/PLTV/3/224/3221227781/index.m3u8
782,http://ott.mobaibox.com/PLTV/3/224/3221227782/index.m3u8
783,http://ott.mobaibox.com/PLTV/3/224/3221227783/index.m3u8
784,http://ott.mobaibox.com/PLTV/3/224/3221227784/index.m3u8
785,http://ott.mobaibox.com/PLTV/3/224/3221227785/index.m3u8
786,http://ott.mobaibox.com/PLTV/3/224/3221227786/index.m3u8
787,http://ott.mobaibox.com/PLTV/3/224/3221227787/index.m3u8
788,http://ott.mobaibox.com/PLTV/3/224/3221227788/index.m3u8
789,http://ott.mobaibox.com/PLTV/3/224/3221227789/index.m3u8
790,http://ott.mobaibox.com/PLTV/3/224/3221227790/index.m3u8
791,http://ott.mobaibox.com/PLTV/3/224/3221227791/index.m3u8
792,http://ott.mobaibox.com/PLTV/3/224/3221227792/index.m3u8
793,http://ott.mobaibox.com/PLTV/3/224/3221227793/index.m3u8
794,http://ott.mobaibox.com/PLTV/3/224/3221227794/index.m3u8
795,http://ott.mobaibox.com/PLTV/3/224/3221227795/index.m3u8
796,http://ott.mobaibox.com/PLTV/3/224/3221227796/index.m3u8
797,http://ott.mobaibox.com/PLTV/3/224/3221227797/index.m3u8
798,http://ott.mobaibox.com/PLTV/3/224/3221227798/index.m3u8
799,http://ott.mobaibox.com/PLTV/3/224/3221227799/index.m3u8
800,http://ott.mobaibox.com/PLTV/3/224/3221227800/index.m3u8
801,http://ott.mobaibox.com/PLTV/3/224/3221227801/index.m3u8
802,http://ott.mobaibox.com/PLTV/3/224/3221227802/index.m3u8
803,http://ott.mobaibox.com/PLTV/3/224/3221227803/index.m3u8
804,http://ott.mobaibox.com/PLTV/3/224/3221227804/index.m3u8
805,http://ott.mobaibox.com/PLTV/3/224/3221227805/index.m3u8
806,http://ott.mobaibox.com/PLTV/3/224/3221227806/index.m3u8
807,http://ott.mobaibox.com/PLTV/3/224/3221227807/index.m3u8
808,http://ott.mobaibox.com/PLTV/3/224/3221227808/index.m3u8
809,http://ott.mobaibox.com/PLTV/3/224/3221227809/index.m3u8
810,http://ott.mobaibox.com/PLTV/3/224/3221227810/index.m3u8
811,http://ott.mobaibox.com/PLTV/3/224/3221227811/index.m3u8
812,http://ott.mobaibox.com/PLTV/3/224/3221227812/index.m3u8
813,http://ott.mobaibox.com/PLTV/3/224/3221227813/index.m3u8
814,http://ott.mobaibox.com/PLTV/3/224/3221227814/index.m3u8
815,http://ott.mobaibox.com/PLTV/3/224/3221227815/index.m3u8
816,http://ott.mobaibox.com/PLTV/3/224/3221227816/index.m3u8
817,http://ott.mobaibox.com/PLTV/3/224/3221227817/index.m3u8
818,http://ott.mobaibox.com/PLTV/3/224/3221227818/index.m3u8
819,http://ott.mobaibox.com/PLTV/3/224/3221227819/index.m3u8
820,http://ott.mobaibox.com/PLTV/3/224/3221227820/index.m3u8
821,http://ott.mobaibox.com/PLTV/3/224/3221227821/index.m3u8
822,http://ott.mobaibox.com/PLTV/3/224/3221227822/index.m3u8
823,http://ott.mobaibox.com/PLTV/3/224/3221227823/index.m3u8
824,http://ott.mobaibox.com/PLTV/3/224/3221227824/index.m3u8
825,http://ott.mobaibox.com/PLTV/3/224/3221227825/index.m3u8
826,http://ott.mobaibox.com/PLTV/3/224/3221227826/index.m3u8
827,http://ott.mobaibox.com/PLTV/3/224/3221227827/index.m3u8
828,http://ott.mobaibox.com/PLTV/3/224/3221227828/index.m3u8
829,http://ott.mobaibox.com/PLTV/3/224/3221227829/index.m3u8
830,http://ott.mobaibox.com/PLTV/3/224/3221227830/index.m3u8
831,http://ott.mobaibox.com/PLTV/3/224/3221227831/index.m3u8
832,http://ott.mobaibox.com/PLTV/3/224/3221227832/index.m3u8
833,http://ott.mobaibox.com/PLTV/3/224/3221227833/index.m3u8
834,http://ott.mobaibox.com/PLTV/3/224/3221227834/index.m3u8
835,http://ott.mobaibox.com/PLTV/3/224/3221227835/index.m3u8
836,http://ott.mobaibox.com/PLTV/3/224/3221227836/index.m3u8
837,http://ott.mobaibox.com/PLTV/3/224/3221227837/index.m3u8
838,http://ott.mobaibox.com/PLTV/3/224/3221227838/index.m3u8
839,http://ott.mobaibox.com/PLTV/3/224/3221227839/index.m3u8
840,http://ott.mobaibox.com/PLTV/3/224/3221227840/index.m3u8
841,http://ott.mobaibox.com/PLTV/3/224/3221227841/index.m3u8
842,http://ott.mobaibox.com/PLTV/3/224/3221227842/index.m3u8
843,http://ott.mobaibox.com/PLTV/3/224/3221227843/index.m3u8
844,http://ott.mobaibox.com/PLTV/3/224/3221227844/index.m3u8
845,http://ott.mobaibox.com/PLTV/3/224/3221227845/index.m3u8
846,http://ott.mobaibox.com/PLTV/3/224/3221227846/index.m3u8
847,http://ott.mobaibox.com/PLTV/3/224/3221227847/index.m3u8
848,http://ott.mobaibox.com/PLTV/3/224/3221227848/index.m3u8
849,http://ott.mobaibox.com/PLTV/3/224/3221227849/index.m3u8
850,http://ott.mobaibox.com/PLTV/3/224/3221227850/index.m3u8
851,http://ott.mobaibox.com/PLTV/3/224/3221227851/index.m3u8
852,http://ott.mobaibox.com/PLTV/3/224/3221227852/index.m3u8
853,http://ott.mobaibox.com/PLTV/3/224/3221227853/index.m3u8
854,http://ott.mobaibox.com/PLTV/3/224/3221227854/index.m3u8
855,http://ott.mobaibox.com/PLTV/3/224/3221227855/index.m3u8
856,http://ott.mobaibox.com/PLTV/3/224/3221227856/index.m3u8
857,http://ott.mobaibox.com/PLTV/3/224/3221227857/index.m3u8
858,http://ott.mobaibox.com/PLTV/3/224/3221227858/index.m3u8
859,http://ott.mobaibox.com/PLTV/3/224/3221227859/index.m3u8
860,http://ott.mobaibox.com/PLTV/3/224/3221227860/index.m3u8
861,http://ott.mobaibox.com/PLTV/3/224/3221227861/index.m3u8
862,http://ott.mobaibox.com/PLTV/3/224/3221227862/index.m3u8
863,http://ott.mobaibox.com/PLTV/3/224/3221227863/index.m3u8
864,http://ott.mobaibox.com/PLTV/3/224/3221227864/index.m3u8
865,http://ott.mobaibox.com/PLTV/3/224/3221227865/index.m3u8
866,http://ott.mobaibox.com/PLTV/3/224/3221227866/index.m3u8
867,http://ott.mobaibox.com/PLTV/3/224/3221227867/index.m3u8
868,http://ott.mobaibox.com/PLTV/3/224/3221227868/index.m3u8
869,http://ott.mobaibox.com/PLTV/3/224/3221227869/index.m3u8
870,http://ott.mobaibox.com/PLTV/3/224/3221227870/index.m3u8
871,http://ott.mobaibox.com/PLTV/3/224/3221227871/index.m3u8
872,http://ott.mobaibox.com/PLTV/3/224/3221227872/index.m3u8
873,http://ott.mobaibox.com/PLTV/3/224/3221227873/index.m3u8
874,http://ott.mobaibox.com/PLTV/3/224/3221227874/index.m3u8
875,http://ott.mobaibox.com/PLTV/3/224/3221227875/index.m3u8
876,http://ott.mobaibox.com/PLTV/3/224/3221227876/index.m3u8
877,http://ott.mobaibox.com/PLTV/3/224/3221227877/index.m3u8
878,http://ott.mobaibox.com/PLTV/3/224/3221227878/index.m3u8
879,http://ott.mobaibox.com/PLTV/3/224/3221227879/index.m3u8
880,http://ott.mobaibox.com/PLTV/3/224/3221227880/index.m3u8
881,http://ott.mobaibox.com/PLTV/3/224/3221227881/index.m3u8
882,http://ott.mobaibox.com/PLTV/3/224/3221227882/index.m3u8
883,http://ott.mobaibox.com/PLTV/3/224/3221227883/index.m3u8
884,http://ott.mobaibox.com/PLTV/3/224/3221227884/index.m3u8
885,http://ott.mobaibox.com/PLTV/3/224/3221227885/index.m3u8
886,http://ott.mobaibox.com/PLTV/3/224/3221227886/index.m3u8
887,http://ott.mobaibox.com/PLTV/3/224/3221227887/index.m3u8
888,http://ott.mobaibox.com/PLTV/3/224/3221227888/index.m3u8
889,http://ott.mobaibox.com/PLTV/3/224/3221227889/index.m3u8
890,http://ott.mobaibox.com/PLTV/3/224/3221227890/index.m3u8
891,http://ott.mobaibox.com/PLTV/3/224/3221227891/index.m3u8
892,http://ott.mobaibox.com/PLTV/3/224/3221227892/index.m3u8
893,http://ott.mobaibox.com/PLTV/3/224/3221227893/index.m3u8
894,http://ott.mobaibox.com/PLTV/3/224/3221227894/index.m3u8
895,http://ott.mobaibox.com/PLTV/3/224/3221227895/index.m3u8
896,http://ott.mobaibox.com/PLTV/3/224/3221227896/index.m3u8
897,http://ott.mobaibox.com/PLTV/3/224/3221227897/index.m3u8
898,http://ott.mobaibox.com/PLTV/3/224/3221227898/index.m3u8
899,http://ott.mobaibox.com/PLTV/3/224/3221227899/index.m3u8
900,http://ott.mobaibox.com/PLTV/3/224/3221227900/index.m3u8
901,http://ott.mobaibox.com/PLTV/3/224/3221227901/index.m3u8
902,http://ott.mobaibox.com/PLTV/3/224/3221227902/index.m3u8
903,http://ott.mobaibox.com/PLTV/3/224/3221227903/index.m3u8
904,http://ott.mobaibox.com/PLTV/3/224/3221227904/index.m3u8
905,http://ott.mobaibox.com/PLTV/3/224/3221227905/index.m3u8
906,http://ott.mobaibox.com/PLTV/3/224/3221227906/index.m3u8
907,http://ott.mobaibox.com/PLTV/3/224/3221227907/index.m3u8
908,http://ott.mobaibox.com/PLTV/3/224/3221227908/index.m3u8
909,http://ott.mobaibox.com/PLTV/3/224/3221227909/index.m3u8
910,http://ott.mobaibox.com/PLTV/3/224/3221227910/index.m3u8
911,http://ott.mobaibox.com/PLTV/3/224/3221227911/index.m3u8
912,http://ott.mobaibox.com/PLTV/3/224/3221227912/index.m3u8
913,http://ott.mobaibox.com/PLTV/3/224/3221227913/index.m3u8
914,http://ott.mobaibox.com/PLTV/3/224/3221227914/index.m3u8
915,http://ott.mobaibox.com/PLTV/3/224/3221227915/index.m3u8
916,http://ott.mobaibox.com/PLTV/3/224/3221227916/index.m3u8
917,http://ott.mobaibox.com/PLTV/3/224/3221227917/index.m3u8
918,http://ott.mobaibox.com/PLTV/3/224/3221227918/index.m3u8
919,http://ott.mobaibox.com/PLTV/3/224/3221227919/index.m3u8
920,http://ott.mobaibox.com/PLTV/3/224/3221227920/index.m3u8
921,http://ott.mobaibox.com/PLTV/3/224/3221227921/index.m3u8
922,http://ott.mobaibox.com/PLTV/3/224/3221227922/index.m3u8
923,http://ott.mobaibox.com/PLTV/3/224/3221227923/index.m3u8
924,http://ott.mobaibox.com/PLTV/3/224/3221227924/index.m3u8
925,http://ott.mobaibox.com/PLTV/3/224/3221227925/index.m3u8
926,http://ott.mobaibox.com/PLTV/3/224/3221227926/index.m3u8
927,http://ott.mobaibox.com/PLTV/3/224/3221227927/index.m3u8
928,http://ott.mobaibox.com/PLTV/3/224/3221227928/index.m3u8
929,http://ott.mobaibox.com/PLTV/3/224/3221227929/index.m3u8
930,http://ott.mobaibox.com/PLTV/3/224/3221227930/index.m3u8
931,http://ott.mobaibox.com/PLTV/3/224/3221227931/index.m3u8
932,http://ott.mobaibox.com/PLTV/3/224/3221227932/index.m3u8
933,http://ott.mobaibox.com/PLTV/3/224/3221227933/index.m3u8
934,http://ott.mobaibox.com/PLTV/3/224/3221227934/index.m3u8
935,http://ott.mobaibox.com/PLTV/3/224/3221227935/index.m3u8
936,http://ott.mobaibox.com/PLTV/3/224/3221227936/index.m3u8
937,http://ott.mobaibox.com/PLTV/3/224/3221227937/index.m3u8
938,http://ott.mobaibox.com/PLTV/3/224/3221227938/index.m3u8
939,http://ott.mobaibox.com/PLTV/3/224/3221227939/index.m3u8
940,http://ott.mobaibox.com/PLTV/3/224/3221227940/index.m3u8
941,http://ott.mobaibox.com/PLTV/3/224/3221227941/index.m3u8
942,http://ott.mobaibox.com/PLTV/3/224/3221227942/index.m3u8
943,http://ott.mobaibox.com/PLTV/3/224/3221227943/index.m3u8
944,http://ott.mobaibox.com/PLTV/3/224/3221227944/index.m3u8
945,http://ott.mobaibox.com/PLTV/3/224/3221227945/index.m3u8
946,http://ott.mobaibox.com/PLTV/3/224/3221227946/index.m3u8
947,http://ott.mobaibox.com/PLTV/3/224/3221227947/index.m3u8
948,http://ott.mobaibox.com/PLTV/3/224/3221227948/index.m3u8
949,http://ott.mobaibox.com/PLTV/3/224/3221227949/index.m3u8
950,http://ott.mobaibox.com/PLTV/3/224/3221227950/index.m3u8
951,http://ott.mobaibox.com/PLTV/3/224/3221227951/index.m3u8
952,http://ott.mobaibox.com/PLTV/3/224/3221227952/index.m3u8
953,http://ott.mobaibox.com/PLTV/3/224/3221227953/index.m3u8
954,http://ott.mobaibox.com/PLTV/3/224/3221227954/index.m3u8
955,http://ott.mobaibox.com/PLTV/3/224/3221227955/index.m3u8
956,http://ott.mobaibox.com/PLTV/3/224/3221227956/index.m3u8
957,http://ott.mobaibox.com/PLTV/3/224/3221227957/index.m3u8
958,http://ott.mobaibox.com/PLTV/3/224/3221227958/index.m3u8
959,http://ott.mobaibox.com/PLTV/3/224/3221227959/index.m3u8
960,http://ott.mobaibox.com/PLTV/3/224/3221227960/index.m3u8
961,http://ott.mobaibox.com/PLTV/3/224/3221227961/index.m3u8
962,http://ott.mobaibox.com/PLTV/3/224/3221227962/index.m3u8
963,http://ott.mobaibox.com/PLTV/3/224/3221227963/index.m3u8
964,http://ott.mobaibox.com/PLTV/3/224/3221227964/index.m3u8
965,http://ott.mobaibox.com/PLTV/3/224/3221227965/index.m3u8
966,http://ott.mobaibox.com/PLTV/3/224/3221227966/index.m3u8
967,http://ott.mobaibox.com/PLTV/3/224/3221227967/index.m3u8
968,http://ott.mobaibox.com/PLTV/3/224/3221227968/index.m3u8
969,http://ott.mobaibox.com/PLTV/3/224/3221227969/index.m3u8
970,http://ott.mobaibox.com/PLTV/3/224/3221227970/index.m3u8
971,http://ott.mobaibox.com/PLTV/3/224/3221227971/index.m3u8
972,http://ott.mobaibox.com/PLTV/3/224/3221227972/index.m3u8
973,http://ott.mobaibox.com/PLTV/3/224/3221227973/index.m3u8
974,http://ott.mobaibox.com/PLTV/3/224/3221227974/index.m3u8
975,http://ott.mobaibox.com/PLTV/3/224/3221227975/index.m3u8
976,http://ott.mobaibox.com/PLTV/3/224/3221227976/index.m3u8
977,http://ott.mobaibox.com/PLTV/3/224/3221227977/index.m3u8
978,http://ott.mobaibox.com/PLTV/3/224/3221227978/index.m3u8
979,http://ott.mobaibox.com/PLTV/3/224/3221227979/index.m3u8
980,http://ott.mobaibox.com/PLTV/3/224/3221227980/index.m3u8
981,http://ott.mobaibox.com/PLTV/3/224/3221227981/index.m3u8
982,http://ott.mobaibox.com/PLTV/3/224/3221227982/index.m3u8
983,http://ott.mobaibox.com/PLTV/3/224/3221227983/index.m3u8
984,http://ott.mobaibox.com/PLTV/3/224/3221227984/index.m3u8
985,http://ott.mobaibox.com/PLTV/3/224/3221227985/index.m3u8
986,http://ott.mobaibox.com/PLTV/3/224/3221227986/index.m3u8
987,http://ott.mobaibox.com/PLTV/3/224/3221227987/index.m3u8
988,http://ott.mobaibox.com/PLTV/3/224/3221227988/index.m3u8
989,http://ott.mobaibox.com/PLTV/3/224/3221227989/index.m3u8
990,http://ott.mobaibox.com/PLTV/3/224/3221227990/index.m3u8
991,http://ott.mobaibox.com/PLTV/3/224/3221227991/index.m3u8
992,http://ott.mobaibox.com/PLTV/3/224/3221227992/index.m3u8
993,http://ott.mobaibox.com/PLTV/3/224/3221227993/index.m3u8
994,http://ott.mobaibox.com/PLTV/3/224/3221227994/index.m3u8
995,http://ott.mobaibox.com/PLTV/3/224/3221227995/index.m3u8
996,http://ott.mobaibox.com/PLTV/3/224/3221227996/index.m3u8
997,http://ott.mobaibox.com/PLTV/3/224/3221227997/index.m3u8
998,http://ott.mobaibox.com/PLTV/3/224/3221227998/index.m3u8
