#EXTINF:-1 tvg-logo="https://wtv.tools.bianbingdang.com/prod/api/v1/tvg/logo/CCTV1" tvg-id="CCTV1" tvg-name="CCTV1",group-title="🍭 IPTV6专区2",CCTV1
http://[2409:8087:2001:20:2800:0:df6e:eb0f]/wh7f454c46tw1598526246_-2101199601/ott.mobaibox.com/PLTV/3/224/3221227467/index.m3u8?icpid=3&RTS=1663227683&from=40&popid=40&hms_devid=2111&prioritypopid=40&vqe=3
#EXTINF:-1 tvg-logo="https://wtv.tools.bianbingdang.com/prod/api/v1/tvg/logo/CCTV1" tvg-id="CCTV1" tvg-name="CCTV1",group-title="🍭 IPTV6专区2",CCTV1
http://[2409:8087:2001:20:2800:0:df6e:eb18]/ott.mobaibox.com/PLTV/3/224/3221227462/index.m3u8?blog.ntnas.top
#EXTINF:-1 tvg-logo="https://wtv.tools.bianbingdang.com/prod/api/v1/tvg/logo/CCTV1" tvg-id="CCTV1" tvg-name="CCTV1",group-title="🍭 IPTV6专区2",CCTV1
http://[2409:8087:2001:20:2800:0:df6e:eb18]/ott.mobaibox.com/PLTV/3/224/3221227467/index.m3u8?blog.ntnas.top
#EXTINF:-1 tvg-logo="https://wtv.tools.bianbingdang.com/prod/api/v1/tvg/logo/CCTV1" tvg-id="CCTV1" tvg-name="CCTV1",group-title="🍭 IPTV6专区2",CCTV1
http://[2409:8087:2001:20:2800:0:df6e:eb18]/ott.mobaibox.com/PLTV/3/224/3221227634/index.m3u8?blog.ntnas.top
#EXTINF:-1 tvg-logo="https://wtv.tools.bianbingdang.com/prod/api/v1/tvg/logo/CCTV1" tvg-id="CCTV1" tvg-name="CCTV1",group-title="🍭 IPTV6专区2",CCTV1
http://[2409:8087:2001:20:2800:0:df6e:eb18]/ott.mobaibox.com/PLTV/3/224/3221227641/index.m3u8?blog.ntnas.top
#EXTINF:-1 tvg-logo="https://wtv.tools.bianbingdang.com/prod/api/v1/tvg/logo/CCTV2" tvg-id="CCTV2" tvg-name="CCTV2",group-title="🍭 IPTV6专区2",CCTV2
http://[2409:8087:2001:20:2800:0:df6e:eb23]/wh7f454c46tw1440049912_-2025370179/ott.mobaibox.com/PLTV/4/224/3221228300/index.m3u8?icpid=4&RTS=1664455886&from=40&popid=40&hms_devid=2291&prioritypopid=40&vqe=3
#EXTINF:-1 tvg-logo="https://wtv.tools.bianbingdang.com/prod/api/v1/tvg/logo/CCTV1" tvg-id="CCTV1" tvg-name="CCTV1",group-title="🍭 IPTV6专区2",CCTV1
http://[2409:8087:2001:20:2800:0:df6e:eb0f]/wh7f454c46tw1598526246_-2101199601/ott.mobaibox.com/PLTV/3/224/3221227462/index.m3u8?icpid=3&RTS=1663227683&from=40&popid=40&hms_devid=2111&prioritypopid=40&vqe=3
#EXTINF:-1 tvg-logo="https://wtv.tools.bianbingdang.com/prod/api/v1/tvg/logo/CCTV3" tvg-id="CCTV3" tvg-name="CCTV3",group-title="🍭 IPTV6专区2",CCTV3
http://[2409:8087:2001:20:2800:0:df6e:eb18]/ott.mobaibox.com/PLTV/3/224/3221227650/index.m3u8?blog.ntnas.top
#EXTINF:-1 tvg-logo="https://wtv.tools.bianbingdang.com/prod/api/v1/tvg/logo/CCTV4" tvg-id="CCTV4" tvg-name="CCTV4",group-title="🍭 IPTV6专区2",CCTV4
http://[2409:8087:2001:20:2800:0:df6e:eb18]/ott.mobaibox.com/PLTV/3/224/3221228156/index.m3u8?blog.ntnas.top
#EXTINF:-1 tvg-logo="https://wtv.tools.bianbingdang.com/prod/api/v1/tvg/logo/CCTV3" tvg-id="CCTV3" tvg-name="CCTV3",group-title="🍭 IPTV6专区2",CCTV3
http://[2409:8087:2001:20:2800:0:df6e:eb0f]/wh7f454c46tw1598526246_-2101199601/ott.mobaibox.com/PLTV/3/224/3221227424/index.m3u8?icpid=3&RTS=1663227683&from=40&popid=40&hms_devid=2111&prioritypopid=40&vqe=3
#EXTINF:-1 tvg-logo="https://wtv.tools.bianbingdang.com/prod/api/v1/tvg/logo/CCTV5" tvg-id="CCTV5" tvg-name="CCTV5",group-title="🍭 IPTV6专区2",CCTV5
http://[2409:8087:2001:20:2800:0:df6e:eb23]/wh7f454c46tw1440049912_-2025370179/ott.mobaibox.com/PLTV/4/224/3221228502/index.m3u8?icpid=4&RTS=1664455886&from=40&popid=40&hms_devid=2291&prioritypopid=40&vqe=3
#EXTINF:-1 tvg-logo="https://wtv.tools.bianbingdang.com/prod/api/v1/tvg/logo/CCTV5" tvg-id="CCTV5" tvg-name="CCTV5",group-title="🍭 IPTV6专区2",CCTV5
http://[2409:8087:2001:20:2800:0:df6e:eb0f]/wh7f454c46tw1598526246_-2101199601/ott.mobaibox.com/PLTV/3/224/3221227401/index.m3u8?icpid=3&RTS=1663227683&from=40&popid=40&hms_devid=2111&prioritypopid=40&vqe=3
#EXTINF:-1 tvg-logo="https://wtv.tools.bianbingdang.com/prod/api/v1/tvg/logo/CCTV5" tvg-id="CCTV5" tvg-name="CCTV5",group-title="🍭 IPTV6专区2",CCTV5+
http://[2409:8087:2001:20:2800:0:df6e:eb18]/ott.mobaibox.com/PLTV/3/224/3221228076/index.m3u8?blog.ntnas.top
#EXTINF:-1 tvg-logo="https://wtv.tools.bianbingdang.com/prod/api/v1/tvg/logo/CCTV5" tvg-id="CCTV5" tvg-name="CCTV5",group-title="🍭 IPTV6专区2",CCTV5+
http://[2409:8087:2001:20:2800:0:df6e:eb0f]/wh7f454c46tw1598526246_-2101199601/ott.mobaibox.com/PLTV/3/224/3221227480/index.m3u8?icpid=3&RTS=1663227683&from=40&popid=40&hms_devid=2111&prioritypopid=40&vqe=3
#EXTINF:-1 tvg-logo="https://wtv.tools.bianbingdang.com/prod/api/v1/tvg/logo/CCTV6" tvg-id="CCTV6" tvg-name="CCTV6",group-title="🍭 IPTV6专区2",CCTV6
http://[2409:8087:2001:20:2800:0:df6e:eb23]/wh7f454c46tw1440049912_-2025370179/ott.mobaibox.com/PLTV/4/224/3221228516/index.m3u8?icpid=4&RTS=1664455886&from=40&popid=40&hms_devid=2291&prioritypopid=40&vqe=3
#EXTINF:-1 tvg-logo="https://wtv.tools.bianbingdang.com/prod/api/v1/tvg/logo/CCTV6" tvg-id="CCTV6" tvg-name="CCTV6",group-title="🍭 IPTV6专区2",CCTV6
http://[2409:8087:2001:20:2800:0:df6e:eb18]/ott.mobaibox.com/PLTV/3/224/3221228196/index.m3u8?blog.ntnas.top
#EXTINF:-1 tvg-logo="https://wtv.tools.bianbingdang.com/prod/api/v1/tvg/logo/CCTV7" tvg-id="CCTV7" tvg-name="CCTV7",group-title="🍭 IPTV6专区2",CCTV7
http://[2409:8087:2001:20:2800:0:df6e:eb0f]/wh7f454c46tw1598526246_-2101199601/ott.mobaibox.com/PLTV/3/224/3221227626/index.m3u8?icpid=3&RTS=1663227683&from=40&popid=40&hms_devid=2111&prioritypopid=40&vqe=3
#EXTINF:-1 tvg-logo="https://wtv.tools.bianbingdang.com/prod/api/v1/tvg/logo/CCTV8" tvg-id="CCTV8" tvg-name="CCTV8",group-title="🍭 IPTV6专区2",CCTV8
http://[2409:8087:2001:20:2800:0:df6e:eb24]/wh7f454c46tw3949322656_1360725434/ott.mobaibox.com/PLTV/4/224/3221228398/index.m3u8?icpid=4&RTS=1663234329&from=40&popid=40&hms_devid=2292&prioritypopid=40&vqe=3
#EXTINF:-1 tvg-logo="https://wtv.tools.bianbingdang.com/prod/api/v1/tvg/logo/CCTV9" tvg-id="CCTV9" tvg-name="CCTV9",group-title="🍭 IPTV6专区2",CCTV9
http://[2409:8087:2001:20:2800:0:df6e:eb21]:80/wh7f454c46tw1536712487_1033271394/ott.mobaibox.com/PLTV/3/224/3221228303/index.m3u8?icpid=3&RTS=1674385947&from=40&popid=40&hms_devid=2290&prioritypopid=40&vqe=3
#EXTINF:-1 tvg-logo="https://wtv.tools.bianbingdang.com/prod/api/v1/tvg/logo/CCTV10" tvg-id="CCTV10" tvg-name="CCTV10",group-title="🍭 IPTV6专区2",CCTV10
http://[2409:8087:2001:20:2800:0:df6e:eb0f]/wh7f454c46tw1598526246_-2101199601/ott.mobaibox.com/PLTV/3/224/3221227620/index.m3u8?icpid=3&RTS=1663227683&from=40&popid=40&hms_devid=2111&prioritypopid=40&vqe=3
#EXTINF:-1 tvg-logo="https://wtv.tools.bianbingdang.com/prod/api/v1/tvg/logo/CCTV11" tvg-id="CCTV11" tvg-name="CCTV11",group-title="🍭 IPTV6专区2",CCTV11
http://[2409:8087:2001:20:2800:0:df6e:eb0f]/wh7f454c46tw1598526246_-2101199601/ott.mobaibox.com/PLTV/3/224/3221227384/index.m3u8?icpid=3&RTS=1663227683&from=40&popid=40&hms_devid=2111&prioritypopid=40&vqe=3
#EXTINF:-1 tvg-logo="https://wtv.tools.bianbingdang.com/prod/api/v1/tvg/logo/CCTV12" tvg-id="CCTV12" tvg-name="CCTV12",group-title="🍭 IPTV6专区2",CCTV12
http://[2409:8087:2001:20:2800:0:df6e:eb0f]/wh7f454c46tw1598526246_-2101199601/ott.mobaibox.com/PLTV/3/224/3221227637/index.m3u8?icpid=3&RTS=1663227683&from=40&popid=40&hms_devid=2111&prioritypopid=40&vqe=3
#EXTINF:-1 tvg-logo="https://wtv.tools.bianbingdang.com/prod/api/v1/tvg/logo/CCTV13" tvg-id="CCTV13" tvg-name="CCTV13",group-title="🍭 IPTV6专区2",CCTV13
http://[2409:8087:2001:20:2800:0:df6e:eb0f]/wh7f454c46tw1598526246_-2101199601/ott.mobaibox.com/PLTV/3/224/3221227387/index.m3u8?icpid=3&RTS=1663227683&from=40&popid=40&hms_devid=2111&prioritypopid=40&vqe=3
#EXTINF:-1 tvg-logo="https://wtv.tools.bianbingdang.com/prod/api/v1/tvg/logo/CCTV16" tvg-id="CCTV16" tvg-name="CCTV16",group-title="🍭 IPTV6专区2",CCTV16
http://[2409:8087:2001:20:2800:0:df6e:eb18]/ott.mobaibox.com/PLTV/3/224/3221228127/index.m3u8?blog.ntnas.top
#EXTINF:-1 tvg-logo="https://wtv.tools.bianbingdang.com/prod/api/v1/tvg/logo/CCTV17" tvg-id="CCTV17" tvg-name="CCTV17",group-title="🍭 IPTV6专区2",CCTV17
http://[2409:8087:2001:20:2800:0:df6e:eb23]/wh7f454c46tw1440049912_-2025370179/ott.mobaibox.com/PLTV/4/224/3221228407/index.m3u8?icpid=4&RTS=1664455886&from=40&popid=40&hms_devid=2291&prioritypopid=40&vqe=3
#EXTINF:-1,group-title="🍭 IPTV6专区2",风景-8K-30P-HIGH
http://[2409:8087:2001:20:2800:0:df6e:eb04]/wh7f454c46tw3454244171_-1559503599/ott.mobaibox.com/PLTV/3/224/3221228132/index.m3u8?icpid=3&RTS=1670251811&from=40&popid=40&hms_devid=2041&prioritypopid=40&vqe=3
#EXTINF:-1,group-title="🍭 IPTV6专区2",凤凰资讯
http://[2409:8087:2001:20:2800:0:df6e:eb0b]/wh7f454c46tw993550557_162751766/ott.mobaibox.com/PLTV/3/224/3221228524/index.m3u8
#EXTINF:-1,group-title="🍭 IPTV6专区2",凤凰中文
http://[2409:8087:2001:20:2800:0:df6e:eb0b]/wh7f454c46tw993550557_162751766/ott.mobaibox.com/PLTV/3/224/3221228527/index.m3u8
#EXTINF:-1,group-title="🍭 IPTV6专区2",凤凰香港
http://[2409:8087:2001:20:2800:0:df6e:eb0b]/wh7f454c46tw993550557_162751766/ott.mobaibox.com/PLTV/3/224/3221228117/index.m3u8
#EXTINF:-1,group-title="🍭 IPTV6专区2",凤凰资讯
http://[2409:8087:2001:20:2800:0:df6e:eb21]:80/wh7f454c46tw1536712487_1033271394/ott.mobaibox.com/PLTV/3/224/3221228575/index.m3u8?icpid=3&RTS=1674385947&from=40&popid=40&hms_devid=2290&prioritypopid=40&vqe=3
#EXTINF:-1,group-title="🍭 IPTV6专区2",凤凰中文
http://[2409:8087:2001:20:2800:0:df6e:eb24]/wh7f454c46tw3949322656_1360725434/ott.mobaibox.com/PLTV/4/224/3221228527/index.m3u8?icpid=4&RTS=1663234329&from=40&popid=40&hms_devid=2292&prioritypopid=40&vqe=3
#EXTINF:-1,group-title="🍭 IPTV6专区2",黑莓电影
http://[2409:8087:2001:20:2800:0:df6e:eb04]/ott.mobaibox.com/PLTV/3/224/3221225567/index.m3u8
#EXTINF:-1 tvg-logo="https://wtv.tools.bianbingdang.com/prod/api/v1/tvg/logo/北京卫视" tvg-id="北京卫视" tvg-name="北京卫视",group-title="🍭 IPTV6专区2",北京卫视
http://[2409:8087:2001:20:2800:0:df6e:eb12]/ott.mobaibox.com/PLTV/3/224/3221227652/index.m3u8?blog.ntnas.top
#EXTINF:-1 tvg-logo="https://wtv.tools.bianbingdang.com/prod/api/v1/tvg/logo/江苏卫视" tvg-id="江苏卫视" tvg-name="江苏卫视",group-title="🍭 IPTV6专区2",江苏卫视
http://[2409:8087:2001:20:2800:0:df6e:eb0f]/wh7f454c46tw1598526246_-2101199601/ott.mobaibox.com/PLTV/3/224/3221227439/index.m3u8?icpid=3&RTS=1663227683&from=40&popid=40&hms_devid=2111&prioritypopid=40&vqe=3
#EXTINF:-1 tvg-logo="https://wtv.tools.bianbingdang.com/prod/api/v1/tvg/logo/安徽卫视" tvg-id="安徽卫视" tvg-name="安徽卫视",group-title="🍭 IPTV6专区2",安徽卫视
http://[2409:8087:2001:20:2800:0:df6e:eb0f]/wh7f454c46tw1598526246_-2101199601/ott.mobaibox.com/PLTV/3/224/3221227643/index.m3u8?icpid=3&RTS=1663227683&from=40&popid=40&hms_devid=2111&prioritypopid=40&vqe=3
#EXTINF:-1 tvg-logo="https://wtv.tools.bianbingdang.com/prod/api/v1/tvg/logo/山东卫视" tvg-id="山东卫视" tvg-name="山东卫视",group-title="🍭 IPTV6专区2",山东卫视
http://[2409:8087:2001:20:2800:0:df6e:eb23]/wh7f454c46tw1440049912_-2025370179/ott.mobaibox.com/PLTV/4/224/3221228560/index.m3u8?icpid=4&RTS=1664455886&from=40&popid=40&hms_devid=2291&prioritypopid=40&vqe=3
#EXTINF:-1 tvg-logo="https://wtv.tools.bianbingdang.com/prod/api/v1/tvg/logo/湖南卫视" tvg-id="湖南卫视" tvg-name="湖南卫视",group-title="🍭 IPTV6专区2",湖南卫视
http://[2409:8087:2001:20:2800:0:df6e:eb23]/wh7f454c46tw1440049912_-2025370179/ott.mobaibox.com/PLTV/4/224/3221228413/index.m3u8?icpid=4&RTS=1664455886&from=40&popid=40&hms_devid=2291&prioritypopid=40&vqe=3
#EXTINF:-1 tvg-logo="https://wtv.tools.bianbingdang.com/prod/api/v1/tvg/logo/深圳卫视" tvg-id="深圳卫视" tvg-name="深圳卫视",group-title="🍭 IPTV6专区2",深圳卫视
http://[2409:8087:2001:20:2800:0:df6e:eb10]/wh7f454c46tw3614839407_-1644050596/ott.mobaibox.com/PLTV/4/224/3221227555/index.m3u8?icpid=4&RTS=1663233995&from=40&popid=40&hms_devid=2110&prioritypopid=40&vqe=3
#EXTINF:-1 tvg-logo="https://wtv.tools.bianbingdang.com/prod/api/v1/tvg/logo/广西卫视" tvg-id="广西卫视" tvg-name="广西卫视",group-title="🍭 IPTV6专区2",广西卫视
http://[2409:8087:2001:20:2800:0:df6e:eb04]/wh7f454c46tw3568749588_-1882152959/ott.mobaibox.com/PLTV/4/224/3221228183/index.m3u8?icpid=4&RTS=1663233949&from=40&popid=40&hms_devid=2041&prioritypopid=40&vqe=3


#EXTINF:-1 tvg-logo="https://wtv.tools.bianbingdang.com/prod/api/v1/tvg/logo/CCTV1" tvg-id="CCTV1" tvg-name="CCTV1",group-title="🚤 IPTV6🍓",CCTV1
http://[2409:8087:3869:8021:1001::e5]:6610/PLTV/88888910/224/3221225918/index.m3u8
#EXTINF:-1 tvg-logo="https://wtv.tools.bianbingdang.com/prod/api/v1/tvg/logo/CCTV1" tvg-id="CCTV1" tvg-name="CCTV1",group-title="🚤 IPTV6🍓",CCTV1
http://[2409:8087:3869:8021:1001::e5]:6610/PLTV/88888910/224/3221225924/index.m3u8
#EXTINF:-1 tvg-logo="https://wtv.tools.bianbingdang.com/prod/api/v1/tvg/logo/CCTV1" tvg-id="CCTV1" tvg-name="CCTV1",group-title="🚤 IPTV6🍓",CCTV1
http://[2409:8087:3869:8021:1001::e5]:6610/PLTV/88888910/224/3221225501/index.m3u8
#EXTINF:-1 tvg-logo="https://wtv.tools.bianbingdang.com/prod/api/v1/tvg/logo/CCTV2" tvg-id="CCTV2" tvg-name="CCTV2",group-title="🚤 IPTV6🍓",CCTV2
http://[2409:8087:3869:8021:1001::e5]:6610/PLTV/88888910/224/3221225619/index.m3u8
#EXTINF:-1 tvg-logo="https://wtv.tools.bianbingdang.com/prod/api/v1/tvg/logo/CCTV2" tvg-id="CCTV2" tvg-name="CCTV2",group-title="🚤 IPTV6🍓",CCTV2
http://[2409:8087:3869:8021:1001::e5]:6610/PLTV/88888910/224/3221225500/index.m3u8
#EXTINF:-1 tvg-logo="https://wtv.tools.bianbingdang.com/prod/api/v1/tvg/logo/CCTV5" tvg-id="CCTV5" tvg-name="CCTV5",group-title="🚤 IPTV6🍓",CCTV5
http://[2409:8087:3869:8021:1001::e5]:6610/PLTV/88888910/224/3221225751/index.m3u8
#EXTINF:-1 tvg-logo="https://wtv.tools.bianbingdang.com/prod/api/v1/tvg/logo/CCTV5" tvg-id="CCTV5" tvg-name="CCTV5",group-title="🚤 IPTV6🍓",CCTV5
http://[2409:8087:3869:8021:1001::e5]:6610/PLTV/88888910/224/3221225752/index.m3u8
#EXTINF:-1 tvg-logo="https://wtv.tools.bianbingdang.com/prod/api/v1/tvg/logo/CCTV5" tvg-id="CCTV5" tvg-name="CCTV5",group-title="🚤 IPTV6🍓",CCTV5+
http://[2409:8087:3869:8021:1001::e5]:6610/PLTV/88888910/224/3221225706/index.m3u8
#EXTINF:-1 tvg-logo="https://wtv.tools.bianbingdang.com/prod/api/v1/tvg/logo/CCTV6" tvg-id="CCTV6" tvg-name="CCTV6",group-title="🚤 IPTV6🍓",CCTV6
http://[2409:8087:3869:8021:1001::e5]:6610/PLTV/88888910/224/3221225632/index.m3u8
#EXTINF:-1 tvg-logo="https://wtv.tools.bianbingdang.com/prod/api/v1/tvg/logo/CCTV7" tvg-id="CCTV7" tvg-name="CCTV7",group-title="🚤 IPTV6🍓",CCTV7
http://[2409:8087:3869:8021:1001::e5]:6610/PLTV/88888910/224/3221225624/index.m3u8
#EXTINF:-1 tvg-logo="https://wtv.tools.bianbingdang.com/prod/api/v1/tvg/logo/CCTV7" tvg-id="CCTV7" tvg-name="CCTV7",group-title="🚤 IPTV6🍓",CCTV7
http://[2409:8087:3869:8021:1001::e5]:6610/PLTV/88888910/224/3221225499/index.m3u8
#EXTINF:-1 tvg-logo="https://wtv.tools.bianbingdang.com/prod/api/v1/tvg/logo/CCTV8" tvg-id="CCTV8" tvg-name="CCTV8",group-title="🚤 IPTV6🍓",CCTV8
http://[2409:8087:3869:8021:1001::e5]:6610/PLTV/88888910/224/3221225635/index.m3u8
#EXTINF:-1 tvg-logo="https://wtv.tools.bianbingdang.com/prod/api/v1/tvg/logo/CCTV9" tvg-id="CCTV9" tvg-name="CCTV9",group-title="🚤 IPTV6🍓",CCTV9
http://[2409:8087:3869:8021:1001::e5]:6610/PLTV/88888910/224/3221225646/index.m3u8
#EXTINF:-1 tvg-logo="https://wtv.tools.bianbingdang.com/prod/api/v1/tvg/logo/CCTV9" tvg-id="CCTV9" tvg-name="CCTV9",group-title="🚤 IPTV6🍓",CCTV9
http://[2409:8087:3869:8021:1001::e5]:6610/PLTV/88888888/224/3221226262/2/index.m3u8
#EXTINF:-1 tvg-logo="https://wtv.tools.bianbingdang.com/prod/api/v1/tvg/logo/CCTV9" tvg-id="CCTV9" tvg-name="CCTV9",group-title="🚤 IPTV6🍓",CCTV9
http://[2409:8087:3869:8021:1001::e5]:6610/PLTV/88888888/224/3221226257/2/index.m3u8
#EXTINF:-1 tvg-logo="https://wtv.tools.bianbingdang.com/prod/api/v1/tvg/logo/CCTV10" tvg-id="CCTV10" tvg-name="CCTV10",group-title="🚤 IPTV6🍓",CCTV10
http://[2409:8087:3869:8021:1001::e5]:6610/PLTV/88888910/224/3221225496/index.m3u8
#EXTINF:-1 tvg-logo="https://wtv.tools.bianbingdang.com/prod/api/v1/tvg/logo/CCTV10" tvg-id="CCTV10" tvg-name="CCTV10",group-title="🚤 IPTV6🍓",CCTV10
http://[2409:8087:3869:8021:1001::e5]:6610/PLTV/88888888/224/3221226264/2/index.m3u8
#EXTINF:-1 tvg-logo="https://wtv.tools.bianbingdang.com/prod/api/v1/tvg/logo/CCTV11" tvg-id="CCTV11" tvg-name="CCTV11",group-title="🚤 IPTV6🍓",CCTV11
http://[2409:8087:3869:8021:1001::e5]:6610/PLTV/88888910/224/3221225628/index.m3u8
#EXTINF:-1 tvg-logo="https://wtv.tools.bianbingdang.com/prod/api/v1/tvg/logo/CCTV12" tvg-id="CCTV12" tvg-name="CCTV12",group-title="🚤 IPTV6🍓",CCTV12
http://[2409:8087:3869:8021:1001::e5]:6610/PLTV/88888888/224/3221226267/2/index.m3u8
#EXTINF:-1 tvg-logo="https://wtv.tools.bianbingdang.com/prod/api/v1/tvg/logo/CCTV12" tvg-id="CCTV12" tvg-name="CCTV12",group-title="🚤 IPTV6🍓",CCTV12
http://[2409:8087:3869:8021:1001::e5]:6610/PLTV/88888910/224/3221225495/index.m3u8
#EXTINF:-1 tvg-logo="https://wtv.tools.bianbingdang.com/prod/api/v1/tvg/logo/CCTV12" tvg-id="CCTV12" tvg-name="CCTV12",group-title="🚤 IPTV6🍓",CCTV12
http://[2409:8087:3869:8021:1001::e5]:6610/PLTV/88888910/224/3221225637/index.m3u8
#EXTINF:-1 tvg-logo="https://wtv.tools.bianbingdang.com/prod/api/v1/tvg/logo/CCTV13" tvg-id="CCTV13" tvg-name="CCTV13",group-title="🚤 IPTV6🍓",CCTV13
http://[2409:8087:3869:8021:1001::e5]:6610/PLTV/88888910/224/3221225638/index.m3u8
#EXTINF:-1 tvg-logo="https://wtv.tools.bianbingdang.com/prod/api/v1/tvg/logo/CCTV14" tvg-id="CCTV14" tvg-name="CCTV14",group-title="🚤 IPTV6🍓",CCTV14
http://[2409:8087:3869:8021:1001::e5]:6610/PLTV/88888888/224/3221226289/2/index.m3u8
#EXTINF:-1 tvg-logo="https://wtv.tools.bianbingdang.com/prod/api/v1/tvg/logo/CCTV15" tvg-id="CCTV15" tvg-name="CCTV15",group-title="🚤 IPTV6🍓",CCTV15
http://[2409:8087:3869:8021:1001::e5]:6610/PLTV/88888888/224/3221226292/2/index.m3u8
#EXTINF:-1 tvg-logo="https://wtv.tools.bianbingdang.com/prod/api/v1/tvg/logo/CCTV16" tvg-id="CCTV16" tvg-name="CCTV16",group-title="🚤 IPTV6🍓",CCTV16
http://[2409:8087:3869:8021:1001::e5]:6610/PLTV/88888888/224/3221226232/2/index.m3u8
#EXTINF:-1 tvg-logo="https://wtv.tools.bianbingdang.com/prod/api/v1/tvg/logo/CCTV17" tvg-id="CCTV17" tvg-name="CCTV17",group-title="🚤 IPTV6🍓",CCTV17
http://[2409:8087:3869:8021:1001::e5]:6610/PLTV/88888888/224/3221226270/2/index.m3u8
#EXTINF:-1 tvg-logo="https://wtv.tools.bianbingdang.com/prod/api/v1/tvg/logo/CCTV17" tvg-id="CCTV17" tvg-name="CCTV17",group-title="🚤 IPTV6🍓",CCTV17
http://[2409:8087:3869:8021:1001::e5]:6610/PLTV/88888910/224/3221225907/index.m3u8
#EXTINF:-1 tvg-logo="https://wtv.tools.bianbingdang.com/prod/api/v1/tvg/logo/CCTV17" tvg-id="CCTV17" tvg-name="CCTV17",group-title="🚤 IPTV6🍓",CCTV17
http://[2409:8087:3869:8021:1001::e5]:6610/PLTV/88888910/224/3221225908/index.m3u8
#EXTINF:-1 tvg-logo="https://wtv.tools.bianbingdang.com/prod/api/v1/tvg/logo/CCTV央视文化精品" tvg-id="CCTV央视文化精品" tvg-name="CCTV央视文化精品",group-title="🚤 IPTV6🍓",CCTV央视文化精品
http://[2409:8087:7001:20:2::3]:80/dbiptv.sn.chinamobile.com/PLTV/88888893/224/3221226981/index.m3u8
#EXTINF:-1 tvg-logo="https://wtv.tools.bianbingdang.com/prod/api/v1/tvg/logo/CCTV央视台球" tvg-id="CCTV央视台球" tvg-name="CCTV央视台球",group-title="🚤 IPTV6🍓",CCTV央视台球
http://[2409:8087:7001:20:2::3]:80/dbiptv.sn.chinamobile.com/PLTV/88888893/224/3221226956/index.m3u8
#EXTINF:-1 tvg-logo="https://wtv.tools.bianbingdang.com/prod/api/v1/tvg/logo/CCTV高尔夫网球" tvg-id="CCTV高尔夫网球" tvg-name="CCTV高尔夫网球",group-title="🚤 IPTV6🍓",CCTV高尔夫网球
http://[2409:8087:7001:20:2::3]:80/dbiptv.sn.chinamobile.com/PLTV/88888893/224/3221226978/index.m3u8
#EXTINF:-1 tvg-logo="https://wtv.tools.bianbingdang.com/prod/api/v1/tvg/logo/CCTV风云剧场" tvg-id="CCTV风云剧场" tvg-name="CCTV风云剧场",group-title="🚤 IPTV6🍓",CCTV风云剧场
http://[2409:8087:7001:20:2::3]:80/dbiptv.sn.chinamobile.com/PLTV/88888893/224/3221226950/index.m3u8
#EXTINF:-1 tvg-logo="https://wtv.tools.bianbingdang.com/prod/api/v1/tvg/logo/CCTV风云音乐" tvg-id="CCTV风云音乐" tvg-name="CCTV风云音乐",group-title="🚤 IPTV6🍓",CCTV风云音乐
http://[2409:8087:7001:20:2::3]:80/dbiptv.sn.chinamobile.com/PLTV/88888893/224/3221226953/index.m3u8
#EXTINF:-1 tvg-logo="https://wtv.tools.bianbingdang.com/prod/api/v1/tvg/logo/CCTV第一剧场" tvg-id="CCTV第一剧场" tvg-name="CCTV第一剧场",group-title="🚤 IPTV6🍓",CCTV第一剧场
http://[2409:8087:7001:20:2::3]:80/dbiptv.sn.chinamobile.com/PLTV/88888893/224/3221226959/index.m3u8
#EXTINF:-1 tvg-logo="https://wtv.tools.bianbingdang.com/prod/api/v1/tvg/logo/CCTV风云足球" tvg-id="CCTV风云足球" tvg-name="CCTV风云足球",group-title="🚤 IPTV6🍓",CCTV风云足球
http://[2409:8087:7001:20:2::3]:80/dbiptv.sn.chinamobile.com/PLTV/88888893/224/3221226984/index.m3u8
#EXTINF:-1 tvg-logo="https://wtv.tools.bianbingdang.com/prod/api/v1/tvg/logo/CCTV电视指南" tvg-id="CCTV电视指南" tvg-name="CCTV电视指南",group-title="🚤 IPTV6🍓",CCTV电视指南
http://[2409:8087:7001:20:2::3]:80/dbiptv.sn.chinamobile.com/PLTV/88888893/224/3221226987/index.m3u8
#EXTINF:-1 tvg-logo="https://wtv.tools.bianbingdang.com/prod/api/v1/tvg/logo/CCTV怀旧剧场" tvg-id="CCTV怀旧剧场" tvg-name="CCTV怀旧剧场",group-title="🚤 IPTV6🍓",CCTV怀旧剧场
http://[2409:8087:7001:20:2::3]:80/dbiptv.sn.chinamobile.com/PLTV/88888893/224/3221226972/index.m3u8
#EXTINF:-1 tvg-logo="https://wtv.tools.bianbingdang.com/prod/api/v1/tvg/logo/CCTV世界地理" tvg-id="CCTV世界地理" tvg-name="CCTV世界地理",group-title="🚤 IPTV6🍓",CCTV世界地理
http://[2409:8087:7001:20:2::3]:80/dbiptv.sn.chinamobile.com/PLTV/88888893/224/3221226947/index.m3u8
#EXTINF:-1,group-title="🚤 IPTV6🍓",CCTV女性时尚
http://[2409:8087:7000:20:1000::22]:6060/yinhe/2/ch00000090990000002475/index.m3u8?virtualDomain=yinhe.live_hls.zte.com
#EXTINF:-1,group-title="🚤 IPTV6🍓",CETV1
http://[2409:8087:3869:8021:1001::48]:6610/PLTV/88888910/224/3221225917/index.m3u8
#EXTINF:-1,group-title="🚤 IPTV6🍓",CETV1
http://[2409:8087:3869:8021:1001::e5]:6610/PLTV/88888910/224/3221225917/index.m3u8
#EXTINF:-1,group-title="🚤 IPTV6🍓",CETV1
http://[2409:8087:1e03:21::2]:6060/cms001/ch00000090990000001020/index.m3u8?
#EXTINF:-1,group-title="🚤 IPTV6🍓",CETV4
http://[2409:8087:1e03:21::2]:6060/cms001/ch00000090990000001348/index.m3u8?
#EXTINF:-1,group-title="🚤 IPTV6🍓",CETV4
http://[2409:8087:1e04:21::102]:6060/cms001/ch00000090990000001348/1.m3u8
#EXTINF:-1,group-title="🚤 IPTV6🍓",河南4K试验
http://[2409:8087:4400:20:1:a0f:11:9]/iptv.cdn.ha.chinamobile.com/PLTV/88888888/224/3221226526/index.m3u8
#EXTINF:-1,group-title="🚤 IPTV6🍓",凤凰资讯
http://[2409:8087:3869:8021:1001::e5]:6610/PLTV/88888888/224/3221226274/2/index.m3u8
#EXTINF:-1,group-title="🚤 IPTV6🍓",凤凰香港
http://[2409:8087:3869:8021:1001::e5]:6610/PLTV/88888910/224/3221226251/index.m3u8
#EXTINF:-1,group-title="🚤 IPTV6🍓",哒啵赛事
http://[2409:8087:3869:8021:1001::e5]:6610/PLTV/88888910/224/3221225749/index.m3u8
#EXTINF:-1,group-title="🚤 IPTV6🍓",黑莓电影
http://[2409:8087:3869:8021:1001::e5]:6610/PLTV/88888910/224/3221225718/index.m3u8
#EXTINF:-1,group-title="🚤 IPTV6🍓",黑莓电影
http://[2409:8087:3869:8021:1001::e5]:6610/PLTV/88888910/224/3221225764/index.m3u8
#EXTINF:-1,group-title="🚤 IPTV6🍓",求索纪录
http://[2409:8087:4400:20:1:a0f:11:9]/iptv.cdn.ha.chinamobile.com/PLTV/88888888/224/3221226114/index.m3u8
#EXTINF:-1,group-title="🚤 IPTV6🍓",求索科学
http://[2409:8087:4400:20:1:a0f:11:9]/iptv.cdn.ha.chinamobile.com/PLTV/88888888/224/3221226115/index.m3u8
#EXTINF:-1,group-title="🚤 IPTV6🍓",求索生活
http://[2409:8087:4400:20:1:a0f:11:9]/iptv.cdn.ha.chinamobile.com/PLTV/88888888/224/3221226116/index.m3u8
#EXTINF:-1,group-title="🚤 IPTV6🍓",求索动物
http://[2409:8087:4400:20:1:a0f:11:9]/iptv.cdn.ha.chinamobile.com/PLTV/88888888/224/3221226118/index.m3u8
#EXTINF:-1,group-title="🚤 IPTV6🍓",CHC动作电影
http://[2409:8087:7000:20:1000::22]:6060/yinhe/2/ch00000090990000002055/index.m3u8?virtualDomain=yinhe.live_hls.zte.com
#EXTINF:-1,group-title="🚤 IPTV6🍓",CHC高清电影
http://[2409:8087:7000:20:1000::22]:6060/yinhe/2/ch00000090990000002065/index.m3u8?virtualDomain=yinhe.live_hls.zte.com
#EXTINF:-1,group-title="🚤 IPTV6🍓",CHC家庭电影
http://[2409:8087:7000:20:1000::22]:6060/yinhe/2/ch00000090990000002085/index.m3u8?virtualDomain=yinhe.live_hls.zte.com
#EXTINF:-1,group-title="🚤 IPTV6🍓",CITY都市剧场
http://[2409:8087:7000:20:1000::22]:6060/yinhe/2/ch00000090990000002108/index.m3u8?virtualDomain=yinhe.live_hls.zte.com
#EXTINF:-1,group-title="🚤 IPTV6🍓",CITY都市剧场
http://[2409:8087:7001:20:2::3]:80/dbiptv.sn.chinamobile.com/PLTV/88888893/224/3221226581/index.m3u8
#EXTINF:-1,group-title="🚤 IPTV6🍓",动漫秀场
http://[2409:8087:4400:20:1:a0f:11:9]/iptv.cdn.ha.chinamobile.com/PLTV/88888888/224/3221226325/index.m3u8
#EXTINF:-1,group-title="🚤 IPTV6🍓",东方财经
http://[2409:8087:1e03:21::2]:6060/cms001/ch00000090990000001318/index.m3u8?
#EXTINF:-1,group-title="🚤 IPTV6🍓",上海都市
http://[2409:8087:1e04:21::102]:6060/cms001/ch00000090990000001015/1.m3u8
#EXTINF:-1,group-title="🚤 IPTV6🍓",东方财经
http://[2409:8087:4400:20:1:a0f:11:9]/iptv.cdn.ha.chinamobile.com/PLTV/88888888/224/3221226583/index.m3u8
#EXTINF:-1,group-title="🚤 IPTV6🍓",法制天地
http://[2409:8087:4400:20:1:a0f:11:9]/iptv.cdn.ha.chinamobile.com/PLTV/88888888/224/3221226340/index.m3u8
#EXTINF:-1,group-title="🚤 IPTV6🍓",茶频道
http://[2409:8087:4400:20:1:a0f:11:9]/iptv.cdn.ha.chinamobile.com/PLTV/88888888/224/3221226329/index.m3u8
#EXTINF:-1 tvg-logo="https://wtv.tools.bianbingdang.com/prod/api/v1/tvg/logo/七彩戏剧" tvg-id="七彩戏剧" tvg-name="七彩戏剧",group-title="🚤 IPTV6🍓",七彩戏剧
http://[2409:8087:1e04:21::102]:6060/cms001/ch00000090990000001308/1.m3u8
#EXTINF:-1 tvg-logo="https://wtv.tools.bianbingdang.com/prod/api/v1/tvg/logo/魅力足球" tvg-id="魅力足球" tvg-name="魅力足球",group-title="🚤 IPTV6🍓",魅力足球
http://[2409:8087:4400:20:1:a0f:11:9]/iptv.cdn.ha.chinamobile.com/PLTV/88888888/224/3221226558/index.m3u8
#EXTINF:-1 tvg-logo="https://wtv.tools.bianbingdang.com/prod/api/v1/tvg/logo/生活时尚" tvg-id="生活时尚" tvg-name="生活时尚",group-title="🚤 IPTV6🍓",生活时尚
http://[2409:8087:4400:20:1:a0f:11:9]/iptv.cdn.ha.chinamobile.com/PLTV/88888888/224/3221226570/index.m3u8
#EXTINF:-1 tvg-logo="https://wtv.tools.bianbingdang.com/prod/api/v1/tvg/logo/第一财经" tvg-id="第一财经" tvg-name="第一财经",group-title="🚤 IPTV6🍓",第一财经
http://[2409:8087:1e04:21::102]:6060/cms001/ch00000090990000001017/1.m3u8
#EXTINF:-1 tvg-logo="https://wtv.tools.bianbingdang.com/prod/api/v1/tvg/logo/游戏风云" tvg-id="游戏风云" tvg-name="游戏风云",group-title="🚤 IPTV6🍓",游戏风云
http://[2409:8087:7000:20:1000::22]:6060/yinhe/2/ch00000090990000002306/index.m3u8?virtualDomain=yinhe.live_hls.zte.com
#EXTINF:-1 tvg-logo="https://wtv.tools.bianbingdang.com/prod/api/v1/tvg/logo/游戏风云" tvg-id="游戏风云" tvg-name="游戏风云",group-title="🚤 IPTV6🍓",游戏风云
http://[2409:8087:7000:20:1000::22]:6060/yinhe/2/ch00000090990000002295/index.m3u8?virtualDomain=yinhe.live_hls.zte.com
#EXTINF:-1,group-title="🚤 IPTV6🍓",中华特产
http://[2409:8087:4400:20:1:a0f:11:9]/iptv.cdn.ha.chinamobile.com/PLTV/88888888/224/3221226345/index.m3u8
#EXTINF:-1 tvg-logo="https://wtv.tools.bianbingdang.com/prod/api/v1/tvg/logo/东方影视" tvg-id="东方影视" tvg-name="东方影视",group-title="🚤 IPTV6🍓",东方影视
http://[2409:8087:1e04:21::102]:6060/cms001/ch00000090990000001016/1.m3u8
#EXTINF:-1,group-title="🚤 IPTV6🍓",五星体育
http://[2409:8087:1e04:21::102]:6060/cms001/ch00000090990000001018/1.m3u8
#EXTINF:-1,group-title="🚤 IPTV6🍓",茶频道
http://[2409:8087:3869:8021:1001::e5]:6610/PLTV/88888910/224/3221225781/index.m3u8
#EXTINF:-1 tvg-logo="https://wtv.tools.bianbingdang.com/prod/api/v1/tvg/logo/游戏风云" tvg-id="游戏风云" tvg-name="游戏风云",group-title="🚤 IPTV6🍓",游戏风云
http://[2409:8087:7001:20:2::3]:80/dbiptv.sn.chinamobile.com/PLTV/88888893/224/3221226579/index.m3u8
#EXTINF:-1,group-title="🚤 IPTV6🍓",乐游
http://[2409:8087:7001:20:2::3]:80/dbiptv.sn.chinamobile.com/PLTV/88888893/224/3221226580/index.m3u8
#EXTINF:-1,group-title="🚤 IPTV6🍓",金色学堂
http://[2409:8087:7000:20:1000::22]:6060/yinhe/2/ch00000090990000002675/index.m3u8?virtualDomain=yinhe.live_hls.zte.com
#EXTINF:-1,group-title="🚤 IPTV6🍓",纪实人文
http://[2409:8087:4400:20:1:a0f:11:9]/iptv.cdn.ha.chinamobile.com/PLTV/88888888/224/3221226355/index.m3u8
#EXTINF:-1,group-title="🚤 IPTV6🍓",纪实人文
http://[2409:8087:3869:8021:1001::e5]:6610/PLTV/88888910/224/3221225654/index.m3u8
#EXTINF:-1,group-title="🚤 IPTV6🍓",纪实人文
http://[2409:8087:3869:8021:1001::e5]:6610/PLTV/88888910/224/3221225655/index.m3u8
#EXTINF:-1,group-title="🚤 IPTV6🍓",金色学堂
http://[2409:8087:7001:20:2::3]:80/dbiptv.sn.chinamobile.com/PLTV/88888893/224/3221226994/index.m3u8
#EXTINF:-1 tvg-logo="https://wtv.tools.bianbingdang.com/prod/api/v1/tvg/logo/金鹰纪实" tvg-id="金鹰纪实" tvg-name="金鹰纪实",group-title="🚤 IPTV6🍓",金鹰纪实
http://[2409:8087:3869:8021:1001::e5]:6610/PLTV/88888910/224/3221225595/index.m3u8
#EXTINF:-1 tvg-logo="https://wtv.tools.bianbingdang.com/prod/api/v1/tvg/logo/北京卫视" tvg-id="北京卫视" tvg-name="北京卫视",group-title="🚤 IPTV6🍓",北京卫视
http://[2409:8087:3869:8021:1001::e5]:6610/PLTV/88888910/224/3221225674/index.m3u8
#EXTINF:-1 tvg-logo="https://wtv.tools.bianbingdang.com/prod/api/v1/tvg/logo/黑龙江卫视" tvg-id="黑龙江卫视" tvg-name="黑龙江卫视",group-title="🚤 IPTV6🍓",黑龙江卫视
http://[2409:8087:3869:8021:1001::e5]:6610/PLTV/88888910/224/3221225690/index.m3u8
#EXTINF:-1 tvg-logo="https://wtv.tools.bianbingdang.com/prod/api/v1/tvg/logo/北京卫视" tvg-id="北京卫视" tvg-name="北京卫视",group-title="🚤 IPTV6🍓",北京卫视
http://[2409:8087:3869:8021:1001::e5]:6610/PLTV/88888910/224/3221225673/index.m3u8
#EXTINF:-1 tvg-logo="https://wtv.tools.bianbingdang.com/prod/api/v1/tvg/logo/深圳卫视" tvg-id="深圳卫视" tvg-name="深圳卫视",group-title="🚤 IPTV6🍓",深圳卫视
http://[2409:8087:3869:8021:1001::e5]:6610/PLTV/88888910/224/3221225700/index.m3u8
#EXTINF:-1 tvg-logo="https://wtv.tools.bianbingdang.com/prod/api/v1/tvg/logo/广东卫视" tvg-id="广东卫视" tvg-name="广东卫视",group-title="🚤 IPTV6🍓",广东卫视
http://[2409:8087:3869:8021:1001::e5]:6610/PLTV/88888910/224/3221225701/index.m3u8
#EXTINF:-1 tvg-logo="https://wtv.tools.bianbingdang.com/prod/api/v1/tvg/logo/湖北卫视" tvg-id="湖北卫视" tvg-name="湖北卫视",group-title="🚤 IPTV6🍓",湖北卫视
http://[2409:8087:3869:8021:1001::e5]:6610/PLTV/88888910/224/3221225699/index.m3u8
#EXTINF:-1 tvg-logo="https://wtv.tools.bianbingdang.com/prod/api/v1/tvg/logo/山东卫视" tvg-id="山东卫视" tvg-name="山东卫视",group-title="🚤 IPTV6🍓",山东卫视
http://[2409:8087:3869:8021:1001::e5]:6610/PLTV/88888910/224/3221225697/index.m3u8
#EXTINF:-1 tvg-logo="https://wtv.tools.bianbingdang.com/prod/api/v1/tvg/logo/江苏卫视" tvg-id="江苏卫视" tvg-name="江苏卫视",group-title="🚤 IPTV6🍓",江苏卫视
http://[2409:8087:3869:8021:1001::e5]:6610/PLTV/88888910/224/3221225702/index.m3u8
#EXTINF:-1 tvg-logo="https://wtv.tools.bianbingdang.com/prod/api/v1/tvg/logo/湖南卫视" tvg-id="湖南卫视" tvg-name="湖南卫视",group-title="🚤 IPTV6🍓",湖南卫视
http://[2409:8087:3869:8021:1001::e5]:6610/PLTV/88888910/224/3221225704/index.m3u8
#EXTINF:-1 tvg-logo="https://wtv.tools.bianbingdang.com/prod/api/v1/tvg/logo/江西卫视" tvg-id="江西卫视" tvg-name="江西卫视",group-title="🚤 IPTV6🍓",江西卫视
http://[2409:8087:3869:8021:1001::e5]:6610/PLTV/88888910/224/3221225705/index.m3u8
#EXTINF:-1 tvg-logo="https://wtv.tools.bianbingdang.com/prod/api/v1/tvg/logo/天津卫视" tvg-id="天津卫视" tvg-name="天津卫视",group-title="🚤 IPTV6🍓",天津卫视
http://[2409:8087:3869:8021:1001::e5]:6610/PLTV/88888910/224/3221225698/index.m3u8
#EXTINF:-1 tvg-logo="https://wtv.tools.bianbingdang.com/prod/api/v1/tvg/logo/浙江卫视" tvg-id="浙江卫视" tvg-name="浙江卫视",group-title="🚤 IPTV6🍓",浙江卫视
http://[2409:8087:3869:8021:1001::e5]:6610/PLTV/88888910/224/3221225703/index.m3u8
#EXTINF:-1 tvg-logo="https://wtv.tools.bianbingdang.com/prod/api/v1/tvg/logo/重庆卫视" tvg-id="重庆卫视" tvg-name="重庆卫视",group-title="🚤 IPTV6🍓",重庆卫视
http://[2409:8087:3869:8021:1001::e5]:6610/PLTV/88888910/224/3221225734/index.m3u8
#EXTINF:-1 tvg-logo="https://wtv.tools.bianbingdang.com/prod/api/v1/tvg/logo/辽宁卫视" tvg-id="辽宁卫视" tvg-name="辽宁卫视",group-title="🚤 IPTV6🍓",辽宁卫视
http://[2409:8087:3869:8021:1001::e5]:6610/PLTV/88888910/224/3221225735/index.m3u8
#EXTINF:-1 tvg-logo="https://wtv.tools.bianbingdang.com/prod/api/v1/tvg/logo/深圳卫视" tvg-id="深圳卫视" tvg-name="深圳卫视",group-title="🚤 IPTV6🍓",深圳卫视
http://[2409:8087:3869:8021:1001::e5]:6610/PLTV/88888910/224/3221225741/index.m3u8
#EXTINF:-1 tvg-logo="https://wtv.tools.bianbingdang.com/prod/api/v1/tvg/logo/广东卫视" tvg-id="广东卫视" tvg-name="广东卫视",group-title="🚤 IPTV6🍓",广东卫视
http://[2409:8087:3869:8021:1001::e5]:6610/PLTV/88888910/224/3221225742/index.m3u8
#EXTINF:-1 tvg-logo="https://wtv.tools.bianbingdang.com/prod/api/v1/tvg/logo/河北卫视" tvg-id="河北卫视" tvg-name="河北卫视",group-title="🚤 IPTV6🍓",河北卫视
http://[2409:8087:4400:20:1:a0f:11:9]/iptv.cdn.ha.chinamobile.com/PLTV/88888888/224/3221226462/index.m3u8
#EXTINF:-1 tvg-logo="https://wtv.tools.bianbingdang.com/prod/api/v1/tvg/logo/青海卫视" tvg-id="青海卫视" tvg-name="青海卫视",group-title="🚤 IPTV6🍓",青海卫视
http://[2409:8087:4400:20:1:a0f:11:9]/iptv.cdn.ha.chinamobile.com/PLTV/88888888/224/3221226414/index.m3u8
#EXTINF:-1 tvg-logo="https://wtv.tools.bianbingdang.com/prod/api/v1/tvg/logo/青海卫视" tvg-id="青海卫视" tvg-name="青海卫视",group-title="🚤 IPTV6🍓",青海卫视
http://[2409:8087:5011:1020::2b]/180000001002/00000001000000000090000000215609/main.m3u8?IASHttpSessionId=OTT
#EXTINF:-1 tvg-logo="https://wtv.tools.bianbingdang.com/prod/api/v1/tvg/logo/东南卫视" tvg-id="东南卫视" tvg-name="东南卫视",group-title="🚤 IPTV6🍓",东南卫视
http://[2409:8087:3869:8021:1001::e5]:6610/PLTV/88888910/224/3221225657/index.m3u8
#EXTINF:-1 tvg-logo="https://wtv.tools.bianbingdang.com/prod/api/v1/tvg/logo/东方卫视" tvg-id="东方卫视" tvg-name="东方卫视",group-title="🚤 IPTV6🍓",东方卫视
http://[2409:8087:3869:8021:1001::e5]:6610/PLTV/88888910/224/3221225659/index.m3u8
#EXTINF:-1 tvg-logo="https://wtv.tools.bianbingdang.com/prod/api/v1/tvg/logo/安徽卫视" tvg-id="安徽卫视" tvg-name="安徽卫视",group-title="🚤 IPTV6🍓",安徽卫视
http://[2409:8087:3869:8021:1001::e5]:6610/PLTV/88888910/224/3221225737/index.m3u8
#EXTINF:-1 tvg-logo="https://wtv.tools.bianbingdang.com/prod/api/v1/tvg/logo/山东卫视" tvg-id="山东卫视" tvg-name="山东卫视",group-title="🚤 IPTV6🍓",山东卫视
http://[2409:8087:3869:8021:1001::e5]:6610/PLTV/88888910/224/3221225738/index.m3u8
#EXTINF:-1 tvg-logo="https://wtv.tools.bianbingdang.com/prod/api/v1/tvg/logo/天津卫视" tvg-id="天津卫视" tvg-name="天津卫视",group-title="🚤 IPTV6🍓",天津卫视
http://[2409:8087:3869:8021:1001::e5]:6610/PLTV/88888910/224/3221225739/index.m3u8
#EXTINF:-1 tvg-logo="https://wtv.tools.bianbingdang.com/prod/api/v1/tvg/logo/东方卫视" tvg-id="东方卫视" tvg-name="东方卫视",group-title="🚤 IPTV6🍓",东方卫视
http://[2409:8087:3869:8021:1001::e5]:6610/PLTV/88888910/224/3221225489/index.m3u8
#EXTINF:-1 tvg-logo="https://wtv.tools.bianbingdang.com/prod/api/v1/tvg/logo/重庆卫视" tvg-id="重庆卫视" tvg-name="重庆卫视",group-title="🚤 IPTV6🍓",重庆卫视
http://[2409:8087:3869:8021:1001::e5]:6610/PLTV/88888910/224/3221225692/index.m3u8
#EXTINF:-1 tvg-logo="https://wtv.tools.bianbingdang.com/prod/api/v1/tvg/logo/河北卫视" tvg-id="河北卫视" tvg-name="河北卫视",group-title="🚤 IPTV6🍓",河北卫视
http://[2409:8087:3869:8021:1001::e5]:6610/PLTV/88888910/224/3221225732/index.m3u8
#EXTINF:-1 tvg-logo="https://wtv.tools.bianbingdang.com/prod/api/v1/tvg/logo/四川卫视" tvg-id="四川卫视" tvg-name="四川卫视",group-title="🚤 IPTV6🍓",四川卫视
http://[2409:8087:3869:8021:1001::e5]:6610/PLTV/88888910/224/3221225733/index.m3u8
#EXTINF:-1 tvg-logo="https://wtv.tools.bianbingdang.com/prod/api/v1/tvg/logo/湖北卫视" tvg-id="湖北卫视" tvg-name="湖北卫视",group-title="🚤 IPTV6🍓",湖北卫视
http://[2409:8087:3869:8021:1001::e5]:6610/PLTV/88888910/224/3221225740/index.m3u8
#EXTINF:-1 tvg-logo="https://wtv.tools.bianbingdang.com/prod/api/v1/tvg/logo/江苏卫视" tvg-id="江苏卫视" tvg-name="江苏卫视",group-title="🚤 IPTV6🍓",江苏卫视
http://[2409:8087:3869:8021:1001::e5]:6610/PLTV/88888910/224/3221225743/index.m3u8
#EXTINF:-1 tvg-logo="https://wtv.tools.bianbingdang.com/prod/api/v1/tvg/logo/浙江卫视" tvg-id="浙江卫视" tvg-name="浙江卫视",group-title="🚤 IPTV6🍓",浙江卫视
http://[2409:8087:3869:8021:1001::e5]:6610/PLTV/88888910/224/3221225744/index.m3u8
#EXTINF:-1 tvg-logo="https://wtv.tools.bianbingdang.com/prod/api/v1/tvg/logo/广西卫视" tvg-id="广西卫视" tvg-name="广西卫视",group-title="🚤 IPTV6🍓",广西卫视
http://[2409:8087:3869:8021:1001::e5]:6610/PLTV/88888888/224/3221226211/2/index.m3u8
#EXTINF:-1 tvg-logo="https://wtv.tools.bianbingdang.com/prod/api/v1/tvg/logo/金鹰卡通" tvg-id="金鹰卡通" tvg-name="金鹰卡通",group-title="🚤 IPTV6🍓",金鹰卡通
http://[2409:8087:3869:8021:1001::e5]:6610/PLTV/88888910/224/3221226246/index.m3u8
#EXTINF:-1 tvg-logo="https://wtv.tools.bianbingdang.com/prod/api/v1/tvg/logo/海南卫视" tvg-id="海南卫视" tvg-name="海南卫视",group-title="🚤 IPTV6🍓",海南卫视
http://[2409:8087:3869:8021:1001::e5]:6610/PLTV/88888910/224/3221226212/index.m3u8
#EXTINF:-1 tvg-logo="https://wtv.tools.bianbingdang.com/prod/api/v1/tvg/logo/重庆卫视" tvg-id="重庆卫视" tvg-name="重庆卫视",group-title="🚤 IPTV6🍓",重庆卫视
http://[2409:8087:7000:20:1000::22]:6060/yinhe/2/ch00000090990000001297/index.m3u8?virtualDomain=yinhe.live_hls.zte.com
#EXTINF:-1 tvg-logo="https://wtv.tools.bianbingdang.com/prod/api/v1/tvg/logo/海南卫视" tvg-id="海南卫视" tvg-name="海南卫视",group-title="🚤 IPTV6🍓",海南卫视
http://[2409:8087:4400:20:1:a0f:11:9]/iptv.cdn.ha.chinamobile.com/PLTV/88888888/224/3221226417/index.m3u8
#EXTINF:-1 tvg-logo="https://wtv.tools.bianbingdang.com/prod/api/v1/tvg/logo/重庆卫视" tvg-id="重庆卫视" tvg-name="重庆卫视",group-title="🚤 IPTV6🍓",重庆卫视
http://[2409:8087:4400:20:1:a0f:11:9]/iptv.cdn.ha.chinamobile.com/PLTV/88888888/224/3221226420/index.m3u8
#EXTINF:-1 tvg-logo="https://wtv.tools.bianbingdang.com/prod/api/v1/tvg/logo/青海卫视" tvg-id="青海卫视" tvg-name="青海卫视",group-title="🚤 IPTV6🍓",青海卫视
http://[2409:8087:4400:20:1:a0f:11:9]/iptv.cdn.ha.chinamobile.com/PLTV/88888888/224/3221226584/index.m3u8
#EXTINF:-1 tvg-logo="https://wtv.tools.bianbingdang.com/prod/api/v1/tvg/logo/金鹰卡通" tvg-id="金鹰卡通" tvg-name="金鹰卡通",group-title="🚤 IPTV6🍓",金鹰卡通
http://[2409:8087:5011:1020::1f]/180000001001/00000001000000001001000000000039/main.m3u8?IASHttpSessionId=OTT
#EXTINF:-1 tvg-logo="https://wtv.tools.bianbingdang.com/prod/api/v1/tvg/logo/广西卫视" tvg-id="广西卫视" tvg-name="广西卫视",group-title="🚤 IPTV6🍓",广西卫视
http://[2409:8087:5011:1020::2b]/180000001002/00000001000000000090000000215605/main.m3u8?IASHttpSessionId=OTT
#EXTINF:-1 tvg-logo="https://wtv.tools.bianbingdang.com/prod/api/v1/tvg/logo/黑龙江卫视" tvg-id="黑龙江卫视" tvg-name="黑龙江卫视",group-title="🚤 IPTV6🍓",黑龙江卫视
http://[2409:8087:3869:8021:1001::e5]:6610/PLTV/88888910/224/3221225736/index.m3u8
#EXTINF:-1,group-title="🚤 IPTV6🍓",河南电视剧
http://[2409:8087:4400:20:1:a0f:11:9]/iptv.cdn.ha.chinamobile.com/PLTV/88888888/224/3221226521/index.m3u8
#EXTINF:-1,group-title="🚤 IPTV6🍓",河南新闻
http://[2409:8087:4400:20:1:a0f:11:9]/iptv.cdn.ha.chinamobile.com/PLTV/88888888/224/3221226544/index.m3u8
#EXTINF:-1,group-title="🚤 IPTV6🍓",河南戏曲
http://[2409:8087:4400:20:1:a0f:11:9]/iptv.cdn.ha.chinamobile.com/PLTV/88888888/224/3221226561/index.m3u8
#EXTINF:-1,group-title="🚤 IPTV6🍓",河南综合
http://[2409:8087:4400:20:1:a0f:11:9]/iptv.cdn.ha.chinamobile.com/PLTV/88888888/224/3221226565/index.m3u8
#EXTINF:-1,group-title="🚤 IPTV6🍓",河南公共
http://[2409:8087:4400:20:1:a0f:11:9]/iptv.cdn.ha.chinamobile.com/PLTV/88888888/224/3221226566/index.m3u8
#EXTINF:-1,group-title="🚤 IPTV6🍓",河南乡村
http://[2409:8087:4400:20:1:a0f:11:9]/iptv.cdn.ha.chinamobile.com/PLTV/88888888/224/3221226576/index.m3u8
#EXTINF:-1,group-title="🚤 IPTV6🍓",河南国际
http://[2409:8087:4400:20:1:a0f:11:9]/iptv.cdn.ha.chinamobile.com/PLTV/88888888/224/3221226588/index.m3u8
#EXTINF:-1,group-title="🚤 IPTV6🍓",河南晴彩中原
http://[2409:8087:4400:20:1:a0f:11:9]/iptv.cdn.ha.chinamobile.com/PLTV/88888888/224/3221226589/index.m3u8
#EXTINF:-1,group-title="🚤 IPTV6🍓",河南移动电视
http://[2409:8087:4400:20:1:a0f:11:9]/iptv.cdn.ha.chinamobile.com/PLTV/88888888/224/3221226871/index.m3u8
#EXTINF:-1,group-title="🚤 IPTV6🍓",河南戏曲频道
http://[2409:8087:4402:20:1:1216:401:41]/iptv.cdn.ha.chinamobile.com/PLTV/88888888/224/3221226561/index.m3u8
#EXTINF:-1,group-title="🚤 IPTV6🍓",河南乡村频道
http://[2409:8087:4402:20:1:1216:401:41]/iptv.cdn.ha.chinamobile.com/PLTV/88888888/224/3221226576/index.m3u8
#EXTINF:-1,group-title="🚤 IPTV6🍓",河南电视剧频道
http://[2409:8087:4402:20:1:1216:401:41]/iptv.cdn.ha.chinamobile.com/PLTV/88888888/224/3221226521/index.m3u8
#EXTINF:-1,group-title="🚤 IPTV6🍓",河南文博
http://[2409:8087:4402:20:1:1216:401:41]/iptv.cdn.ha.chinamobile.com/PLTV/88888888/224/3221226638/index.m3u8
#EXTINF:-1,group-title="🚤 IPTV6🍓",河南国际
http://[2409:8087:4402:20:1:1216:401:41]/iptv.cdn.ha.chinamobile.com/PLTV/88888888/224/3221226588/index.m3u8

#EXTINF:-1 group-title="🚄  IPTV6芒果高清",IPTV金色夕阳
http://[2409:8087:5000:21::1016]:8089/180000001001/00000001000000000034000000343502/index.m3u8
#EXTINF:-1 group-title="🚄  IPTV6芒果高清",IPTV金色夕阳高清
http://[2409:8087:5000:21::1016]:8089/180000001001/00000001000000001025000000196971/index.m3u8
#EXTINF:-1 group-title="🚄  IPTV6芒果高清",IPTV芒果热播高清
http://[2409:8087:5000:21::1016]:8089/180000001001/00000001000000001008000000292438/index.m3u8
#EXTINF:-1 group-title="🚄  IPTV6芒果高清",IPTV芒果互娱高清
http://[2409:8087:5000:21::1016]:8089/180000001001/00000001000000001025000000196970/index.m3u8
#EXTINF:-1 group-title="🚄  IPTV6芒果高清",IPTV经典剧场高清
http://[2409:8087:5011:1020::2b]/180000001001/00000001000000001002000000000012/main.m3u8?IASHttpSessionId=OTT
#EXTINF:-1 group-title="🚄  IPTV6芒果高清",IPTV抗战剧场高清
http://[2409:8087:5000:21::1016]:8089/180000001001/00000001000000001002000000000007/index.m3u8
#EXTINF:-1 group-title="🚄  IPTV6芒果高清",IPTV古装剧场高清
http://[2409:8087:5000:21::1016]:8089/180000001001/00000001000000001002000000000010/index.m3u8
#EXTINF:-1 group-title="🚄  IPTV6芒果高清",IPTV家庭剧场高清
http://[2409:8087:5000:21::1016]:8089/180000001001/00000001000000001002000000000011/index.m3u8
#EXTINF:-1 group-title="🚄  IPTV6芒果高清",IPTV高清院线高清
http://[2409:8087:5000:21::1016]:8089/180000001001/00000001000000001002000000000009/index.m3u8
#EXTINF:-1 group-title="🚄  IPTV6芒果高清",IPTV芒果乐活高清
http://[2409:8087:5000:21::1016]:8089/180000001001/00000001000000001008000000154081/index.m3u8
#EXTINF:-1 group-title="🚄  IPTV6芒果高清",IPTV金色夕阳高清
http://[2409:8087:5000:21::1016]:8089/180000001001/00000001000000000034000000343502/index.m3u8

#EXTINF:-1 group-title="🚄  IPTV6芒果高清",IPTV芒果互娱
http://[2409:8087:5000:21::1016]:8089/180000001001/00000001000000000034000000343501/index.m3u8
