NewTV东北热剧,http://hwrr.jx.chinamobile.com:8080/PLTV/88888888/224/3221226202/index.m3u8
NewTV中国功夫,http://hwrr.jx.chinamobile.com:8080/PLTV/88888888/224/3221225660/index.m3u8
NewTV军事评论,http://hwrr.jx.chinamobile.com:8080/PLTV/88888888/224/3221225757/index.m3u8
NewTV军旅剧场,http://hwrr.jx.chinamobile.com:8080/PLTV/88888888/224/3221225669/index.m3u8
NewTV农业致富,http://hwrr.jx.chinamobile.com:8080/PLTV/88888888/224/3221225670/index.m3u8
NewTV古装剧场,http://hwrr.jx.chinamobile.com:8080/PLTV/88888888/224/3221225678/index.m3u8
NewTV家庭剧场,http://hwrr.jx.chinamobile.com:8080/PLTV/88888888/224/3221225713/index.m3u8
NewTV怡伴健康,http://hwrr.jx.chinamobile.com:8080/PLTV/88888888/224/3221225666/index.m3u8
NewTV明星大片,http://hwrr.jx.chinamobile.com:8080/PLTV/88888888/224/3221225716/index.m3u8
NewTV欢乐剧场,http://hwrr.jx.chinamobile.com:8080/PLTV/88888888/224/3221226210/index.m3u8
NewTV武搏世界,http://hwrr.jx.chinamobile.com:8080/PLTV/88888888/224/3221225656/index.m3u8
NewTV海外剧场,http://hwrr.jx.chinamobile.com:8080/PLTV/88888888/224/3221225712/index.m3u8
NewTV潮妈辣婆,http://hwrr.jx.chinamobile.com:8080/PLTV/88888888/224/3221225708/index.m3u8
NewTV炫舞未来,http://hwrr.jx.chinamobile.com:8080/PLTV/88888888/224/3221225707/index.m3u8
NewTV精品体育,http://hwrr.jx.chinamobile.com:8080/PLTV/88888888/224/3221225709/index.m3u8
NewTV精品大剧,http://hwrr.jx.chinamobile.com:8080/PLTV/88888888/224/3221225714/index.m3u8
NewTV精品纪录,http://hwrr.jx.chinamobile.com:8080/PLTV/88888888/224/3221225710/index.m3u8
NewTV超级体育,http://hwrr.jx.chinamobile.com:8080/PLTV/88888888/224/3221225622/index.m3u8
NewTV超级体育,http://hwrr.jx.chinamobile.com:8080/PLTV/88888888/224/3221225648/index.m3u8
NewTV超级体育,http://hwrr.jx.chinamobile.com:8080/PLTV/88888888/224/3221225767/index.m3u8
NewTV超级电影,http://hwrr.jx.chinamobile.com:8080/PLTV/88888888/224/3221225623/index.m3u8
NewTV超级电影,http://hwrr.jx.chinamobile.com:8080/PLTV/88888888/224/3221225766/index.m3u8
NewTV超级电视剧,http://hwrr.jx.chinamobile.com:8080/PLTV/88888888/224/3221225625/index.m3u8
NewTV超级电视剧,http://hwrr.jx.chinamobile.com:8080/PLTV/88888888/224/3221225765/index.m3u8
NewTV超级综艺,http://hwrr.jx.chinamobile.com:8080/PLTV/88888888/224/3221225620/index.m3u8
NewTV超级综艺,http://hwrr.jx.chinamobile.com:8080/PLTV/88888888/224/3221225768/index.m3u8
NewTV金牌综艺,http://hwrr.jx.chinamobile.com:8080/PLTV/88888888/224/3221225711/index.m3u8
黑莓动画,http://hwrr.jx.chinamobile.com:8080/PLTV/88888888/224/3221225672/index.m3u8
黑莓电影,http://hwrr.jx.chinamobile.com:8080/PLTV/88888888/224/3221225718/index.m3u8
黑莓电影,http://hwrr.jx.chinamobile.com:8080/PLTV/88888888/224/3221225764/index.m3u8
黑莓电影,http://hwrr.jx.chinamobile.com:8080/PLTV/88888888/224/3221225769/index.m3u8
黑莓电竞,http://hwrr.jx.chinamobile.com:8080/PLTV/88888888/224/3221225653/index.m3u8
黑莓电竞,http://hwrr.jx.chinamobile.com:8080/PLTV/88888888/224/3221225749/index.m3u8
黑莓电竞,http://hwrr.jx.chinamobile.com:8080/PLTV/88888888/224/3221225750/index.m3u8
NewTV黑莓电竞,http://39.134.115.163:8080/PLTV/88888910/224/3221225653/index.m3u8
NewTV黑莓电影,http://39.134.115.163:8080/PLTV/88888910/224/3221225718/index.m3u8
NewTV潮妈辣婆,http://39.135.138.58:18890/PLTV/88888888/224/3221225712/index.m3u8
NewTV爱情喜剧,http://39.135.138.58:18890/PLTV/88888888/224/3221225656/index.m3u8
NewTV古装剧场,http://39.134.115.163:8080/PLTV/88888910/224/3221225678/index.m3u8
NewTV古装剧场,http://39.135.138.60:18890/PLTV/88888910/224/3221225678/index.m3u8
NewTV动作电影,http://39.135.138.58:18890/PLTV/88888888/224/3221225620/index.m3u8
NewTV动作电影,http://39.135.138.60:18890/PLTV/88888910/224/3221225620/index.m3u8
NewTV动作电影,http://39.135.138.58:18890/PLTV/88888888/224/3221225678/index.m3u8
NewTV军旅剧场,http://39.135.138.59:18890/PLTV/88888910/224/3221225669/index.m3u8
NewTV军旅剧场,http://39.134.115.163:8080/PLTV/88888910/224/3221225669/index.m3u8
NewTV军旅剧场,http://39.135.138.60:18890/PLTV/88888910/224/3221225669/index.m3u8
NewTV精品纪录,http://39.134.115.163:8080/PLTV/88888910/224/3221225710/index.m3u8
NewTV精品纪录,http://39.135.138.60:18890/PLTV/88888910/224/3221225707/index.m3u8
NewTV中国功夫,http://39.135.138.60:18890/PLTV/88888910/224/3221225660/index.m3u8
NewTV中国功夫,http://39.135.138.58:18890/PLTV/88888888/224/3221225660/1.m3u8
NewTV军事评论,http://39.135.138.58:18890/PLTV/88888888/224/3221225623/index.m3u8
NewTV军事评论,http://39.135.138.58:18890/PLTV/88888888/224/3221225757/index.m3u8
NewTV军事评论,http://39.135.138.60:18890/PLTV/88888910/224/3221225757/index.m3u8
NewTV家庭剧场,http://39.135.138.58:18890/PLTV/88888888/224/3221225670/index.m3u8
NewTV农业致富,http://39.134.115.163:8080/PLTV/88888910/224/3221225670/index.m3u8
NewTV农业致富,http://39.135.138.60:18890/PLTV/88888910/224/3221225660/index.m3u8
NewTV武搏世界,http://39.135.138.60:18890/PLTV/88888910/224/3221225670/index.m3u8
NewTV超级电视剧,http://39.135.138.58:18890/PLTV/88888888/224/3221225710/index.m3u8
NewTV超级电视剧,http://39.135.138.60:18890/PLTV/88888910/224/3221225710/index.m3u8
NewTV超级体育,http://39.134.115.163:8080/PLTV/88888910/224/3221225622/index.m3u8
NewTV超级体育,http://39.135.138.60:18890/PLTV/88888910/224/3221225709/index.m3u8
NewTV金牌综艺,http://39.135.138.58:18890/PLTV/88888888/224/3221225622/index.m3u8
NewTV金牌综艺,http://39.135.138.58:18890/PLTV/88888888/224/3221225648/index.m3u8
NewTV精品大剧,http://39.134.115.163:8080/PLTV/88888910/224/3221225714/index.m3u8
NewTV精品大剧,http://39.135.138.58:18890/PLTV/88888888/224/3221225708/index.m3u8
NewTV精品大剧,http://39.135.138.60:18890/PLTV/88888910/224/3221225708/index.m3u8
NewTV炫舞未来,http://39.134.115.163:8080/PLTV/88888910/224/3221225707/index.m3u8
NewTV炫舞未来,http://39.135.138.60:18890/PLTV/88888910/224/3221225713/index.m3u8
NewTV超级电影,http://39.135.138.58:18890/PLTV/88888888/224/3221225714/index.m3u8
NewTV超级电影,http://39.135.138.60:18890/PLTV/88888910/224/3221225714/index.m3u8
NewTV超级综艺,http://39.135.138.58:18890/PLTV/88888888/224/3221225716/index.m3u8
NewTV明星大片,http://39.135.138.58:18890/PLTV/88888888/224/3221226210/index.m3u8
NewTV明星大片,http://39.134.115.163:8080/PLTV/88888910/224/3221225716/index.m3u8
NewTV欢乐剧场,http://39.135.138.58:18890/PLTV/88888888/224/3221225711/index.m3u8
NewTV热播精选,http://39.135.138.60:18890/PLTV/88888910/224/3221225711/index.m3u8
NewTV东北热剧,http://hwrr.jx.chinamobile.com:8080/PLTV/88888888/224/3221226202/index.m3u8
NewTV军事评论,http://hwrr.jx.chinamobile.com:8080/PLTV/88888888/224/3221225757/index.m3u8
NewTV家庭剧场,http://hwrr.jx.chinamobile.com:8080/PLTV/88888888/224/3221225713/index.m3u8
NewTV欢乐剧场,http://hwrr.jx.chinamobile.com:8080/PLTV/88888888/224/3221226210/index.m3u8
NewTV精品体育,http://hwrr.jx.chinamobile.com:8080/PLTV/88888888/224/3221225709/index.m3u8
NewTV超级电视剧,http://hwrr.jx.chinamobile.com:8080/PLTV/88888888/224/3221225625/index.m3u8
NewTV黑莓电竞,http://39.134.115.163:8080/PLTV/88888910/224/3221225653/index.m3u8
NewTV黑莓电影,http://39.134.115.163:8080/PLTV/88888910/224/3221225718/index.m3u8
NewTV潮妈辣婆,http://111.40.196.38/PLTV/88888888/224/3221225680/index.m3u8
NewTV潮妈辣婆,http://39.134.66.66/PLTV/88888888/224/3221225538/index.m3u8
NewTV潮妈辣婆,http://39.135.138.58:18890/PLTV/88888888/224/3221225712/index.m3u8
NewTV潮妈辣婆,http://39.134.65.166/PLTV/88888888/224/3221225521/1.m3u8
NewTV爱情喜剧,http://111.40.196.38/PLTV/88888888/224/3221225616/index.m3u8
NewTV爱情喜剧,http://39.134.66.66/PLTV/88888888/224/3221225547/index.m3u8
NewTV爱情喜剧,http://39.135.138.58:18890/PLTV/88888888/224/3221225656/index.m3u8
NewTV古装剧场,http://111.40.196.36/PLTV/88888888/224/3221225618/index.m3u8
NewTV古装剧场,http://39.134.115.163:8080/PLTV/88888910/224/3221225678/index.m3u8
NewTV古装剧场,http://39.134.65.166/PLTV/88888888/224/3221225524/1.m3u8
NewTV古装剧场,http://39.134.65.164/PLTV/88888888/224/3221225524/1.m3u8
NewTV古装剧场,http://39.135.138.60:18890/PLTV/88888910/224/3221225678/index.m3u8
NewTV动作电影,http://111.40.196.31/PLTV/88888888/224/3221225620/index.m3u8
NewTV动作电影,http://39.134.66.66/PLTV/88888888/224/3221225642/index.m3u8
NewTV动作电影,http://39.135.138.58:18890/PLTV/88888888/224/3221225620/index.m3u8
NewTV动作电影,http://39.134.65.164/PLTV/88888888/224/3221225642/1.m3u8
NewTV动作电影,http://39.135.138.60:18890/PLTV/88888910/224/3221225620/index.m3u8
NewTV动作电影,http://39.134.66.66/PLTV/88888888/224/3221225524/index.m3u8
NewTV动作电影,http://39.135.138.58:18890/PLTV/88888888/224/3221225678/index.m3u8
NewTV军旅剧场,http://111.40.196.28/PLTV/88888888/224/3221225622/index.m3u8
NewTV军旅剧场,http://39.134.115.163:8080/PLTV/88888910/224/3221225669/index.m3u8
NewTV军旅剧场,http://39.134.65.164/PLTV/88888888/224/3221225644/1.m3u8
NewTV军旅剧场,http://39.134.65.179/PLTV/88888888/224/3221225644/1.m3u8
NewTV军旅剧场,http://39.134.65.173/PLTV/88888888/224/3221225644/1.m3u8
NewTV军旅剧场,http://39.134.65.175/PLTV/88888888/224/3221225644/1.m3u8
NewTV军旅剧场,http://39.134.65.164/PLTV/88888888/224/3221225560/1.m3u8
NewTV军旅剧场,http://39.135.138.60:18890/PLTV/88888910/224/3221225669/index.m3u8
NewTV精品纪录,http://111.40.196.28/PLTV/88888888/224/3221225630/index.m3u8
NewTV精品纪录,http://39.134.115.163:8080/PLTV/88888910/224/3221225710/index.m3u8
NewTV精品纪录,http://39.134.66.66/PLTV/88888888/224/3221225646/index.m3u8
NewTV精品纪录,http://39.134.65.164/PLTV/88888888/224/3221225646/1.m3u8
NewTV精品纪录,http://39.135.138.60:18890/PLTV/88888910/224/3221225707/index.m3u8
NewTV精品体育,http://111.40.196.37/PLTV/88888888/224/3221225608/index.m3u8
NewTV精品体育,http://39.134.65.166/PLTV/88888888/224/3221225547/1.m3u8
NewTV军事评论,http://111.40.196.39/PLTV/88888888/224/3221225634/index.m3u8
NewTV军事评论,http://39.134.66.66/PLTV/88888888/224/3221225644/index.m3u8
NewTV军事评论,http://39.135.138.58:18890/PLTV/88888888/224/3221225623/index.m3u8
NewTV军事评论,http://39.134.66.66/PLTV/88888888/224/3221225535/index.m3u8
NewTV军事评论,http://39.135.138.58:18890/PLTV/88888888/224/3221225757/index.m3u8
NewTV军事评论,http://39.134.65.166/PLTV/88888888/224/3221225535/1.m3u8
NewTV军事评论,http://39.134.65.164/PLTV/88888888/224/3221225535/1.m3u8
NewTV军事评论,http://39.135.138.60:18890/PLTV/88888910/224/3221225757/index.m3u8
NewTV惊悚悬疑,http://111.40.196.32/PLTV/88888888/224/3221225638/index.m3u8
NewTV惊悚悬疑,http://39.134.65.166/PLTV/88888888/224/3221225525/1.m3u8
NewTV惊悚悬疑,http://39.134.65.173/PLTV/88888888/224/3221225525/1.m3u8
NewTV惊悚悬疑,http://39.134.65.175/PLTV/88888888/224/3221225525/1.m3u8
NewTV惊悚悬疑,http://39.134.65.166/PLTV/88888888/224/3221225555/1.m3u8
NewTV惊悚悬疑,http://39.134.65.164/PLTV/88888888/224/3221225555/1.m3u8
NewTV家庭剧场,http://111.40.196.39/PLTV/88888888/224/3221225626/index.m3u8
NewTV家庭剧场,http://39.134.66.66/PLTV/88888888/224/3221225552/index.m3u8
NewTV家庭剧场,http://111.40.196.9/PLTV/88888888/224/3221225636/index.m3u8
NewTV家庭剧场,http://39.135.138.58:18890/PLTV/88888888/224/3221225670/index.m3u8
NewTV家庭剧场,http://39.134.66.66/PLTV/88888888/224/3221225550/index.m3u8
NewTV农业致富,http://111.40.196.35/PLTV/88888888/224/3221225636/index.m3u8
NewTV农业致富,http://39.134.115.163:8080/PLTV/88888910/224/3221225670/index.m3u8
NewTV农业致富,http://39.134.66.66/PLTV/88888888/224/3221225604/index.m3u8
NewTV农业致富,http://39.134.65.164/PLTV/88888888/224/3221225604/1.m3u8
NewTV农业致富,http://39.135.138.60:18890/PLTV/88888910/224/3221225660/index.m3u8
NewTV武搏世界,http://111.40.196.39/PLTV/88888888/224/3221225664/index.m3u8
NewTV武搏世界,http://39.134.65.166/PLTV/88888888/224/3221225552/1.m3u8
NewTV武搏世界,http://39.134.65.164/PLTV/88888888/224/3221225552/1.m3u8
NewTV武搏世界,http://39.135.138.60:18890/PLTV/88888910/224/3221225670/index.m3u8
NewTV武搏世界,http://39.134.65.166/PLTV/88888888/224/3221225553/1.m3u8
NewTV武搏世界,http://39.134.65.164/PLTV/88888888/224/3221225553/1.m3u8
NewTV中国功夫,http://111.40.196.38/PLTV/88888888/224/3221225678/index.m3u8
NewTV中国功夫,http://39.134.65.164/PLTV/88888888/224/3221225679/1.m3u8
NewTV中国功夫,http://39.134.65.173/PLTV/88888888/224/3221225679/1.m3u8
NewTV中国功夫,http://39.134.66.66/PLTV/88888888/224/3221225571/index.m3u8
NewTV中国功夫,http://39.134.65.164/PLTV/88888888/224/3221225571/1.m3u8
NewTV超级电视剧,http://39.134.66.66/PLTV/88888888/224/3221225545/index.m3u8
NewTV超级电视剧,http://111.40.196.9/PLTV/88888888/224/3221225630/index.m3u8
NewTV超级电视剧,http://39.135.138.58:18890/PLTV/88888888/224/3221225710/index.m3u8
NewTV超级电视剧,http://39.134.65.166/PLTV/88888888/224/3221225545/1.m3u8
NewTV超级电视剧,http://39.135.138.60:18890/PLTV/88888910/224/3221225710/index.m3u8
NewTV超级电视剧,http://39.134.67.2:80/ottrrs.hl.chinamobile.com/PLTV/88888888/224/3221225672/1.m3u8
NewTV超级电视剧,http://39.134.67.6:80/ottrrs.hl.chinamobile.com/PLTV/88888888/224/3221225672/1.m3u8
NewTV超级电视剧,http://39.134.67.7:80/ottrrs.hl.chinamobile.com/PLTV/88888888/224/3221225672/1.m3u8
NewTV超级体育,http://39.134.115.163:8080/PLTV/88888910/224/3221225622/index.m3u8
NewTV超级体育,http://39.134.66.66/PLTV/88888888/224/3221225526/index.m3u8
NewTV超级体育,http://39.134.65.166/PLTV/88888888/224/3221225526/1.m3u8
NewTV超级体育,http://39.135.138.60:18890/PLTV/88888910/224/3221225709/index.m3u8
NewTV金牌综艺,http://39.135.138.58:18890/PLTV/88888888/224/3221225622/index.m3u8
NewTV金牌综艺,http://39.135.138.58:18890/PLTV/88888888/224/3221225648/index.m3u8
NewTV金牌综艺,http://39.134.65.164/PLTV/88888888/224/3221225635/1.m3u8
NewTV精品大剧,http://39.134.115.163:8080/PLTV/88888910/224/3221225714/index.m3u8
NewTV精品大剧,http://39.134.66.66/PLTV/88888888/224/3221225542/index.m3u8
NewTV精品大剧,http://111.40.196.9/PLTV/88888888/224/3221225680/index.m3u8
NewTV精品大剧,http://39.135.138.58:18890/PLTV/88888888/224/3221225708/index.m3u8
NewTV精品大剧,http://39.134.65.166/PLTV/88888888/224/3221225542/1.m3u8
NewTV精品大剧,http://39.134.65.164/PLTV/88888888/224/3221225542/1.m3u8
NewTV精品大剧,http://39.135.138.60:18890/PLTV/88888910/224/3221225708/index.m3u8
NewTV炫舞未来,http://39.134.115.163:8080/PLTV/88888910/224/3221225707/index.m3u8
NewTV炫舞未来,http://111.40.196.9/PLTV/88888888/224/3221225626/index.m3u8
NewTV炫舞未来,http://39.134.65.164/PLTV/88888888/224/3221225538/1.m3u8
NewTV炫舞未来,http://39.135.138.60:18890/PLTV/88888910/224/3221225713/index.m3u8
NewTV精品综合,http://39.134.66.66/PLTV/88888888/224/3221225533/index.m3u8
NewTV精品综合,http://111.40.196.9/PLTV/88888888/224/3221225616/index.m3u8
NewTV精品综合,http://39.134.65.166/PLTV/88888888/224/3221225533/1.m3u8
NewTV精品综合,http://39.134.65.164/PLTV/88888888/224/3221225533/1.m3u8
NewTV超级电影,http://39.134.66.66/PLTV/88888888/224/3221225536/index.m3u8
NewTV超级电影,http://39.135.138.58:18890/PLTV/88888888/224/3221225714/index.m3u8
NewTV超级电影,http://39.134.65.166/PLTV/88888888/224/3221225536/1.m3u8
NewTV超级电影,http://39.135.138.60:18890/PLTV/88888910/224/3221225714/index.m3u8
NewTV超级综艺,http://111.40.196.9/PLTV/88888888/224/3221225632/index.m3u8
NewTV超级综艺,http://39.135.138.58:18890/PLTV/88888888/224/3221225716/index.m3u8
NewTV超级综艺,http://39.134.65.166/PLTV/88888888/224/3221225550/1.m3u8
NewTV超级综艺,http://39.134.65.164/PLTV/88888888/224/3221225550/1.m3u8
NewTV明星大片,http://39.134.66.66/PLTV/88888888/224/3221225637/index.m3u8
NewTV明星大片,http://39.135.138.58:18890/PLTV/88888888/224/3221225625/index.m3u8
NewTV明星大片,http://39.134.65.164/PLTV/88888888/224/3221225637/1.m3u8
NewTV明星大片,http://39.135.138.58:18890/PLTV/88888888/224/3221226210/index.m3u8
NewTV明星大片,http://39.134.65.179/PLTV/88888888/224/3221225682/1.m3u8
NewTV明星大片,http://39.134.65.166/PLTV/88888888/224/3221225682/1.m3u8
NewTV明星大片,http://39.134.65.173/PLTV/88888888/224/3221225682/1.m3u8
NewTV明星大片,http://39.134.65.175/PLTV/88888888/224/3221225682/1.m3u8
NewTV动画王国,http://39.134.65.179/PLTV/88888888/224/3221225637/1.m3u8
NewTV动画王国,http://39.134.65.181/PLTV/88888888/224/3221225637/1.m3u8
NewTV动画王国,http://39.134.65.173/PLTV/88888888/224/3221225637/1.m3u8
NewTV动画王国,http://39.134.65.183/PLTV/88888888/224/3221225637/1.m3u8
NewTV欢乐剧场,http://39.134.66.66/PLTV/88888888/224/3221225525/index.m3u8
NewTV欢乐剧场,http://111.40.196.9/PLTV/88888888/224/3221225650/index.m3u8
NewTV欢乐剧场,http://39.135.138.58:18890/PLTV/88888888/224/3221225711/index.m3u8
NewTV欢乐剧场,http://39.134.65.179/PLTV/88888888/224/3221225525/1.m3u8
NewTV热播精选,http://39.135.138.60:18890/PLTV/88888910/224/3221225711/index.m3u8
NewTV东北热剧,http://hwrr.jx.chinamobile.com:8080/PLTV/88888888/224/3221226202/index.m3u8
NewTV军事评论,http://hwrr.jx.chinamobile.com:8080/PLTV/88888888/224/3221225757/index.m3u8
NewTV家庭剧场,http://hwrr.jx.chinamobile.com:8080/PLTV/88888888/224/3221225713/index.m3u8
NewTV欢乐剧场,http://hwrr.jx.chinamobile.com:8080/PLTV/88888888/224/3221226210/index.m3u8
NewTV精品体育,http://hwrr.jx.chinamobile.com:8080/PLTV/88888888/224/3221225709/index.m3u8
NewTV超级电视剧,http://hwrr.jx.chinamobile.com:8080/PLTV/88888888/224/3221225625/index.m3u8
NewTV惊悚悬疑,http://117.169.124.149:8080/live/jingsongxy/index.m3u8
NewTV古装剧场,http://117.169.124.149:8080/live/guzhuangjc/index.m3u8
NewTV家庭剧场,http://117.169.124.149:8080/live/jiatingjc/index.m3u8
NewTV军旅剧场,http://117.169.124.149:8080/live/junlvjc/index.m3u8
NewTV欢乐剧场,http://39.135.138.58:18890/PLTV/88888888/224/3221226210/index.m3u8
NewTV超级电影,http://39.135.138.59:18890/PLTV/88888910/224/3221225623/index.m3u8
NewTV超级电影,http://39.134.115.163:8080/PLTV/88888910/224/3221225623/index.m3u8
NewTV超级电视剧,http://117.169.121.162:6610/PLTV/88888910/224/3221225625/index.m3u8
NewTV超级电视剧,http://117.169.121.162:6610/PLTV/88888910/224/3221225765/index.m3u8
NewTV超级综艺,http://117.169.121.162:6610/PLTV/88888910/224/3221225620/index.m3u8
NewTV超级综艺,http://117.169.121.162:6610/PLTV/88888910/224/3221225768/index.m3u8
NewTV中国功夫,http://117.169.121.162:6610/PLTV/88888910/224/3221225660/index.m3u8
NewTV明星剧场,http://39.134.115.163:8080/PLTV/88888910/224/3221225716/index.m3u8
NewTV明星剧场,http://117.169.121.162:6610/PLTV/88888910/224/3221225716/index.m3u8
NewTV精品大剧,http://117.169.121.162:6610/PLTV/88888910/224/3221225714/index.m3u8
