CCTV1,http://111.194.10.65:4022/rtp/239.3.1.1:8000
CCTV2,http://111.194.10.65:4022/rtp/239.3.1.2:8004
CCTV4,http://111.194.10.65:4022/rtp/239.3.1.4:8216
CCTV7,http://111.194.10.65:4022/rtp/239.3.1.7:8024
CCTV9,http://111.194.10.65:4022/rtp/239.3.1.9:8032
CCTV10,http://111.194.10.65:4022/rtp/239.3.1.10:8228
CCTV11,http://111.194.10.65:4022/rtp/239.3.1.11:8040
CCTV12,http://111.194.10.65:4022/rtp/239.3.1.12:8232
CCTV13,http://111.194.10.65:4022/rtp/239.3.1.13:8048
CCTV14,http://111.194.10.65:4022/rtp/239.3.1.14:8236
CCTV15,http://111.194.10.65:4022/rtp/239.3.1.15:8052
CGTN,http://111.194.10.65:4022/rtp/239.3.1.16:8056
湖南卫视,http://111.194.10.65:4022/rtp/239.3.1.18:8268
浙江卫视,http://111.194.10.65:4022/rtp/239.3.1.19:8284
江苏卫视,http://111.194.10.65:4022/rtp/239.3.1.20:8276
安徽卫视,http://111.194.10.65:4022/rtp/239.3.1.21:8272
天津卫视,http://111.194.10.65:4022/rtp/239.3.1.23:8144
辽宁卫视,http://111.194.10.65:4022/rtp/239.3.1.24:8116
山东卫视,http://111.194.10.65:4022/rtp/239.3.1.25:8148
云南卫视,http://111.194.10.65:4022/rtp/239.3.1.26:8108
河南卫视,http://111.194.10.65:4022/rtp/239.3.1.27:8128
黑龙江卫视,http://111.194.10.65:4022/rtp/239.3.1.28:8196
四川卫视,http://111.194.10.65:4022/rtp/239.3.1.29:8288
江西卫视,http://111.194.10.65:4022/rtp/239.3.1.30:8280
贵州卫视,http://111.194.10.65:4022/rtp/239.3.1.31:8120
深圳卫视,http://111.194.10.65:4022/rtp/239.3.1.32:9244
湖北卫视,http://111.194.10.65:4022/rtp/239.3.1.33:8136
东方卫视,http://111.194.10.65:4022/rtp/239.3.1.34:8192
重庆卫视,http://111.194.10.65:4022/rtp/239.3.1.35:8296
东南卫视,http://111.194.10.65:4022/rtp/239.3.1.36:8112
河北卫视,http://111.194.10.65:4022/rtp/239.3.1.37:8292
广东卫视,http://111.194.10.65:4022/rtp/239.3.1.38:8132
广西卫视,http://111.194.10.65:4022/rtp/239.3.1.39:8300
吉林卫视,http://111.194.10.65:4022/rtp/239.3.1.40:8200
陕西卫视,http://111.194.10.65:4022/rtp/239.3.1.41:8140
山西卫视,http://111.194.10.65:4022/rtp/239.3.1.42:8172
内蒙古卫视,http://111.194.10.65:4022/rtp/239.3.1.43:8176
青海卫视,http://111.194.10.65:4022/rtp/239.3.1.44:8184
海南卫视,http://111.194.10.65:4022/rtp/239.3.1.45:8304
宁夏卫视,http://111.194.10.65:4022/rtp/239.3.1.46:8124
西藏卫视,http://111.194.10.65:4022/rtp/239.3.1.47:8164
新疆卫视,http://111.194.10.65:4022/rtp/239.3.1.48:8160
甘肃卫视,http://111.194.10.65:4022/rtp/239.3.1.49:8188
金银卡通,http://111.194.10.65:4022/rtp/239.3.1.51:9252
山东教育卫视,http://111.194.10.65:4022/rtp/239.3.1.52:4120
财富天下,http://111.194.10.65:4022/rtp/239.3.1.53:9136
CETV2,http://111.194.10.65:4022/rtp/239.3.1.54:4120
CETV3,http://111.194.10.65:4022/rtp/239.3.1.55:4120
CETV4,http://111.194.10.65:4022/rtp/239.3.1.56:4120
CETV1高清,http://111.194.10.65:4022/rtp/239.3.1.57:8152
金鹰纪实高清,http://111.194.10.65:4022/rtp/239.3.1.58:8156
CCTV2高清,http://111.194.10.65:4022/rtp/239.3.1.60:8084
CCTV7高清,http://111.194.10.65:4022/rtp/239.3.1.61:8104
CCTV9高清,http://111.194.10.65:4022/rtp/239.3.1.62:8112
CCTV10高清,http://111.194.10.65:4022/rtp/239.3.1.63:8116
CCTV12高清,http://111.194.10.65:4022/rtp/239.3.1.64:8124
CCTV14高清,http://111.194.10.65:4022/rtp/239.3.1.65:8132
熊猫频道高清,http://111.194.10.65:4022/rtp/239.3.1.66:8068
城市剧场,http://111.194.10.65:4022/rtp/239.3.1.67:4120
军旅剧场,http://111.194.10.65:4022/rtp/239.3.1.68:4120
古装剧场,http://111.194.10.65:4022/rtp/239.3.1.69:4120
音乐现场,http://111.194.10.65:4022/rtp/239.3.1.70:4120
地理,http://111.194.10.65:4022/rtp/239.3.1.71:4120
美妆,http://111.194.10.65:4022/rtp/239.3.1.72:4120
,http://111.194.10.65:4022/rtp/239.3.1.73:4120
精选,http://111.194.10.65:4022/rtp/239.3.1.74:4120
解密,http://111.194.10.65:4022/rtp/239.3.1.75:4120
军事,http://111.194.10.65:4022/rtp/239.3.1.76:4120
国学,http://111.194.10.65:4022/rtp/239.3.1.77:4120
戏曲,http://111.194.10.65:4022/rtp/239.3.1.78:4120
早教,http://111.194.10.65:4022/rtp/239.3.1.79:4120
动画,http://111.194.10.65:4022/rtp/239.3.1.80:4120
2好学生,http://111.194.10.65:4022/rtp/239.3.1.81:4120
鉴赏,http://111.194.10.65:4022/rtp/239.3.1.82:4120
墨宝,http://111.194.10.65:4022/rtp/239.3.1.83:4120
光影,http://111.194.10.65:4022/rtp/239.3.1.84:4120
台球,http://111.194.10.65:4022/rtp/239.3.1.85:4120
爱生活,http://111.194.10.65:4022/rtp/239.3.1.86:4120
武术,http://111.194.10.65:4022/rtp/239.3.1.87:4120
高网,http://111.194.10.65:4022/rtp/239.3.1.88:4120
足球,http://111.194.10.65:4022/rtp/239.3.1.89:4120
武侠剧场,http://111.194.10.65:4022/rtp/239.3.1.90:4120
喜剧影院,http://111.194.10.65:4022/rtp/239.3.1.91:4120
动作影院,http://111.194.10.65:4022/rtp/239.3.1.92:4120
家庭影院,http://111.194.10.65:4022/rtp/239.3.1.93:4120
星影,http://111.194.10.65:4022/rtp/239.3.1.94:4120
淘剧场高清,http://111.194.10.65:4022/rtp/239.3.1.95:8001
房山电视台高清,http://111.194.10.65:4022/rtp/239.3.1.96:8001
BTV体育休闲,http://111.194.10.65:4022/rtp/239.3.1.97:8001
淘娱乐高清,http://111.194.10.65:4022/rtp/239.3.1.100:8001
萌宠TV高清,http://111.194.10.65:4022/rtp/239.3.1.102:8001
CCTV4高清,http://111.194.10.65:4022/rtp/239.3.1.105:8092
CCTV3,http://111.194.10.65:4022/rtp/239.3.1.107:8001
CCTV5,http://111.194.10.65:4022/rtp/239.3.1.108:8001
CCTV6,http://111.194.10.65:4022/rtp/239.3.1.109:8001
CCTV8,http://111.194.10.65:4022/rtp/239.3.1.110:8001
每日影院高清,http://111.194.10.65:4022/rtp/239.3.1.111:8001
幸福剧场高清,http://111.194.10.65:4022/rtp/239.3.1.112:8001
幸福娱乐高清,http://111.194.10.65:4022/rtp/239.3.1.113:8001
风尚生活高清,http://111.194.10.65:4022/rtp/239.3.1.114:8001
BTV科教高清,http://111.194.10.65:4022/rtp/239.3.1.115:8000
BTV财经高清,http://111.194.10.65:4022/rtp/239.3.1.116:8000
BTV生活高清,http://111.194.10.65:4022/rtp/239.3.1.117:8000
BTV青年高清,http://111.194.10.65:4022/rtp/239.3.1.118:8000
BTV冬奥纪实4KHDR,http://111.194.10.65:4022/rtp/239.3.1.120:8000
BTV冬奥纪实4K,http://111.194.10.65:4022/rtp/239.3.1.121:8000
重庆卫视高清,http://111.194.10.65:4022/rtp/239.3.1.122:8160
江西卫视高清,http://111.194.10.65:4022/rtp/239.3.1.123:8164
CCTV13高清,http://111.194.10.65:4022/rtp/239.3.1.124:8128
CCTV1高清,http://111.194.10.65:4022/rtp/239.3.1.129:8008
CCTV5+高清,http://111.194.10.65:4022/rtp/239.3.1.130:8004
湖南卫视高清,http://111.194.10.65:4022/rtp/239.3.1.132:8012
黑龙江卫视高清,http://111.194.10.65:4022/rtp/239.3.1.133:8016
深圳卫视高清,http://111.194.10.65:4022/rtp/239.3.1.134:8020
江苏卫视高清,http://111.194.10.65:4022/rtp/239.3.1.135:8028
东方卫视高清,http://111.194.10.65:4022/rtp/239.3.1.136:8032
浙江卫视高清,http://111.194.10.65:4022/rtp/239.3.1.137:8036
湖北卫视高清,http://111.194.10.65:4022/rtp/239.3.1.138:8044
天津卫视高清,http://111.194.10.65:4022/rtp/239.3.1.141:1234
广东卫视高清,http://111.194.10.65:4022/rtp/239.3.1.142:8048
厦门卫视,http://111.194.10.65:4022/rtp/239.3.1.143:4120
兵团卫视,http://111.194.10.65:4022/rtp/239.3.1.144:4120
CETV1,http://111.194.10.65:4022/rtp/239.3.1.146:4120
嘉佳卡通,http://111.194.10.65:4022/rtp/239.3.1.147:9268
河北卫视高清,http://111.194.10.65:4022/rtp/239.3.1.148:8072
贵州卫视高清,http://111.194.10.65:4022/rtp/239.3.1.149:8076
CCTV17,http://111.194.10.65:4022/rtp/239.3.1.150:8064
CCTV17高清,http://111.194.10.65:4022/rtp/239.3.1.151:8144
CCTV11高清,http://111.194.10.65:4022/rtp/239.3.1.152:8120
CCTV15高清,http://111.194.10.65:4022/rtp/239.3.1.153:8136
密云电视台高清,http://111.194.10.65:4022/rtp/239.3.1.154:8001
三沙卫视,http://111.194.10.65:4022/rtp/239.3.1.155:4120
东南卫视高清,http://111.194.10.65:4022/rtp/239.3.1.156:8148
体育赛事高清,http://111.194.10.65:4022/rtp/239.3.1.157:8176
BTV影视高清,http://111.194.10.65:4022/rtp/239.3.1.158:8000
BTV新闻高清,http://111.194.10.65:4022/rtp/239.3.1.159:8000
南方卫视,http://111.194.10.65:4022/rtp/239.3.1.161:8001
粤TV,http://111.194.10.65:4022/rtp/239.3.1.162:8001
朝阳融媒,http://111.194.10.65:4022/rtp/239.3.1.163:8001
快乐垂钓高清,http://111.194.10.65:4022/rtp/239.3.1.164:8001
茶频道高清,http://111.194.10.65:4022/rtp/239.3.1.165:8001
CCTV3高清,http://111.194.10.65:4022/rtp/239.3.1.172:8001
CCTV5高清,http://111.194.10.65:4022/rtp/239.3.1.173:8001
CCTV6高清,http://111.194.10.65:4022/rtp/239.3.1.174:8001
CCTV8高清,http://111.194.10.65:4022/rtp/239.3.1.175:8001
淘精彩高清,http://111.194.10.65:4022/rtp/239.3.1.178:8001
聚鲨环球精选高清,http://111.194.10.65:4022/rtp/239.3.1.179:8001
聚鲨北京高清,http://111.194.10.65:4022/rtp/239.3.1.180:8001
聚鲨健康高清,http://111.194.10.65:4022/rtp/239.3.1.181:8001
聚鲨生活高清,http://111.194.10.65:4022/rtp/239.3.1.182:8001
聚鲨国际高清,http://111.194.10.65:4022/rtp/239.3.1.183:8001
聚鲨环球精选,http://111.194.10.65:4022/rtp/239.3.1.184:8001
聚鲨北京,http://111.194.10.65:4022/rtp/239.3.1.185:8001
聚鲨健康,http://111.194.10.65:4022/rtp/239.3.1.186:8001
聚鲨生活,http://111.194.10.65:4022/rtp/239.3.1.187:8001
聚鲨国际,http://111.194.10.65:4022/rtp/239.3.1.188:8001
BTV卡酷少儿高清,http://111.194.10.65:4022/rtp/239.3.1.189:8000
IPTV收视指南,http://111.194.10.65:4022/rtp/239.3.1.193:8012
IPTV热播剧场,http://111.194.10.65:4022/rtp/239.3.1.194:9020
IPTV经典电影,http://111.194.10.65:4022/rtp/239.3.1.195:9024
IPTV魅力时尚,http://111.194.10.65:4022/rtp/239.3.1.196:9012
IPTV少儿动画,http://111.194.10.65:4022/rtp/239.3.1.199:9000
山东卫视高清,http://111.194.10.65:4022/rtp/239.3.1.209:8052
辽宁卫视高清,http://111.194.10.65:4022/rtp/239.3.1.210:8056
安徽卫视高清,http://111.194.10.65:4022/rtp/239.3.1.211:8064
纪实人文高清,http://111.194.10.65:4022/rtp/239.3.1.212:8060
CCTV4欧洲高清,http://111.194.10.65:4022/rtp/239.3.1.213:4220
CCTV4美洲高清,http://111.194.10.65:4022/rtp/239.3.1.214:4220
CGTN高清,http://111.194.10.65:4022/rtp/239.3.1.215:4220
CGTN纪录频道高清,http://111.194.10.65:4022/rtp/239.3.1.216:4220
CGTN西班牙语高清,http://111.194.10.65:4022/rtp/239.3.1.217:4220
CGTN法语高清,http://111.194.10.65:4022/rtp/239.3.1.218:4220
CGTN阿拉伯语高清,http://111.194.10.65:4022/rtp/239.3.1.219:4220
CGTN俄语高清,http://111.194.10.65:4022/rtp/239.3.1.220:4220
北京卫视,http://111.194.10.65:4022/rtp/239.3.1.225:8000
BTV文艺,http://111.194.10.65:4022/rtp/239.3.1.226:8000
BTV科教,http://111.194.10.65:4022/rtp/239.3.1.227:8000
BTV影视,http://111.194.10.65:4022/rtp/239.3.1.228:8000
BTV财经,http://111.194.10.65:4022/rtp/239.3.1.229:8000
BTV冬奥纪实,http://111.194.10.65:4022/rtp/239.3.1.230:8000
BTV生活,http://111.194.10.65:4022/rtp/239.3.1.231:8000
BTV青年,http://111.194.10.65:4022/rtp/239.3.1.232:8000
BTV新闻,http://111.194.10.65:4022/rtp/239.3.1.233:8000
BTV卡酷少儿,http://111.194.10.65:4022/rtp/239.3.1.234:8000
BTV国际频道,http://111.194.10.65:4022/rtp/239.3.1.235:8000
爱上4K,http://111.194.10.65:4022/rtp/239.3.1.236:2000
淘BABY高清,http://111.194.10.65:4022/rtp/239.3.1.238:8001
北京卫视高清,http://111.194.10.65:4022/rtp/239.3.1.241:8000
BTV文艺高清,http://111.194.10.65:4022/rtp/239.3.1.242:8000
BTV冬奥纪实高清,http://111.194.10.65:4022/rtp/239.3.1.243:8000
4K超清,http://111.194.10.65:4022/rtp/239.3.1.249:8001
淘电影高清,http://111.194.10.65:4022/rtp/239.3.1.250:8001
大健康高清,http://111.194.10.65:4022/rtp/239.3.1.251:8001
